practice exam/Exam3/Q3_JALR/m.vcd
$date
	Mon Mar 13 11:11:03 2017
$end
$version
	Icarus Verilog
$end
$timescale
	1s
$end
$scope module test $end
$var wire 32 ! PC [31:0] $end
$var reg 1 " clk $end
$var reg 1 # done $end
$var integer 32 $ i [31:0] $end
$var reg 1 % reset $end
$scope module m $end
$var wire 3 & ALUOp [2:0] $end
$var wire 1 ' ALUSrc $end
$var wire 1 ( BEQ $end
$var wire 32 ) B_data [31:0] $end
$var wire 1 * MemRead $end
$var wire 1 + MemToReg $end
$var wire 1 , MemWrite $end
$var wire 32 - PC [31:0] $end
$var wire 1 . PCSrc $end
$var wire 30 / PC_plus4 [31:2] $end
$var wire 30 0 PC_target [31:2] $end
$var wire 1 1 RegDst $end
$var wire 1 2 RegWrite $end
$var wire 32 3 alu_out_data [31:0] $end
$var wire 1 4 clk $end
$var wire 5 5 dest [4:0] $end
$var wire 6 6 funct [5:0] $end
$var wire 32 7 imm [31:0] $end
$var wire 32 8 inst [31:0] $end
$var wire 1 9 jalr $end
$var wire 32 : load_data [31:0] $end
$var wire 1 ; negative $end
$var wire 32 < newData [31:0] $end
$var wire 30 = new_next_PC [31:2] $end
$var wire 30 > next_PC [31:2] $end
$var wire 30 ? old_next_PC [31:2] $end
$var wire 32 @ old_wr_data [31:0] $end
$var wire 6 A opcode [5:0] $end
$var wire 5 B rd [4:0] $end
$var wire 32 C rd1_data [31:0] $end
$var wire 32 D rd2_data [31:0] $end
$var wire 1 E reset $end
$var wire 5 F rs [4:0] $end
$var wire 5 G rt [4:0] $end
$var wire 32 H wr_data [31:0] $end
$var wire 5 I wr_regnum [4:0] $end
$var wire 1 J zero $end
$scope module PC_reg $end
$var wire 1 4 clk $end
$var wire 30 K d [29:0] $end
$var wire 1 L enable $end
$var wire 1 E reset $end
$var reg 30 M q [29:0] $end
$upscope $end
$scope module next_PC_adder $end
$var wire 30 N in1 [29:0] $end
$var wire 30 O in2 [29:0] $end
$var wire 30 P out [29:0] $end
$upscope $end
$scope module target_PC_adder $end
$var wire 30 Q in1 [29:0] $end
$var wire 30 R in2 [29:0] $end
$var wire 30 S out [29:0] $end
$upscope $end
$scope module branch_mux $end
$var wire 30 T A [29:0] $end
$var wire 30 U B [29:0] $end
$var wire 30 V out [29:0] $end
$var wire 1 . sel $end
$var wire 30 W temp1 [29:0] $end
$var wire 30 X temp2 [29:0] $end
$upscope $end
$scope module nextPC_mux $end
$var wire 30 Y A [29:0] $end
$var wire 30 Z B [29:0] $end
$var wire 30 [ out [29:0] $end
$var wire 1 9 sel $end
$var wire 30 \ temp1 [29:0] $end
$var wire 30 ] temp2 [29:0] $end
$upscope $end
$scope module imem $end
$var wire 30 ^ addr [29:0] $end
$var wire 32 _ data [31:0] $end
$var reg 32 ` i [31:0] $end
$upscope $end
$scope module decode $end
$var wire 3 a ALUOp [2:0] $end
$var wire 1 ' ALUSrc $end
$var wire 1 ( BEQ $end
$var wire 1 * MemRead $end
$var wire 1 + MemToReg $end
$var wire 1 , MemWrite $end
$var wire 1 1 RegDst $end
$var wire 1 2 RegWrite $end
$var wire 6 b funct [5:0] $end
$var wire 3 c given_ALUOp [2:0] $end
$var wire 1 d given_ALUSrc $end
$var wire 1 e given_BEQ $end
$var wire 1 f given_MemRead $end
$var wire 1 g given_MemToReg $end
$var wire 1 h given_MemWrite $end
$var wire 1 i given_RegDst $end
$var wire 1 j given_RegWrite $end
$var wire 1 9 jalr $end
$var wire 3 k new_ALUOp [2:0] $end
$var wire 1 l new_ALUSrc $end
$var wire 1 m new_BEQ $end
$var wire 1 n new_MemRead $end
$var wire 1 o new_MemToReg $end
$var wire 1 p new_MemWrite $end
$var wire 1 q new_RegDst $end
$var wire 1 r new_RegWrite $end
$var wire 1 s new_inst $end
$var wire 6 t opcode [5:0] $end
$scope module given $end
$var wire 3 u ALUOp [2:0] $end
$var wire 1 d ALUSrc $end
$var wire 1 e BEQ $end
$var wire 1 f MemRead $end
$var wire 1 g MemToReg $end
$var wire 1 h MemWrite $end
$var wire 1 i RegDst $end
$var wire 1 j RegWrite $end
$var wire 6 v funct [5:0] $end
$var wire 1 w nop $end
$var wire 1 x op0 $end
$var wire 6 y opcode [5:0] $end
$upscope $end
$scope module ALUOp_mux $end
$var wire 3 z A [2:0] $end
$var wire 3 { B [2:0] $end
$var wire 3 | out [2:0] $end
$var wire 1 s sel $end
$var wire 3 } temp1 [2:0] $end
$var wire 3 ~ temp2 [2:0] $end
$upscope $end
$scope module RegWrite_mux $end
$var wire 1 j A $end
$var wire 1 r B $end
$var wire 1 2 out $end
$var wire 1 s sel $end
$var wire 1 !" temp1 $end
$var wire 1 "" temp2 $end
$upscope $end
$scope module BEQ_mux $end
$var wire 1 e A $end
$var wire 1 m B $end
$var wire 1 ( out $end
$var wire 1 s sel $end
$var wire 1 #" temp1 $end
$var wire 1 $" temp2 $end
$upscope $end
$scope module ALUSrc_mux $end
$var wire 1 d A $end
$var wire 1 l B $end
$var wire 1 ' out $end
$var wire 1 s sel $end
$var wire 1 %" temp1 $end
$var wire 1 &" temp2 $end
$upscope $end
$scope module MemRead_mux $end
$var wire 1 f A $end
$var wire 1 n B $end
$var wire 1 * out $end
$var wire 1 s sel $end
$var wire 1 '" temp1 $end
$var wire 1 (" temp2 $end
$upscope $end
$scope module MemWrite_mux $end
$var wire 1 h A $end
$var wire 1 p B $end
$var wire 1 , out $end
$var wire 1 s sel $end
$var wire 1 )" temp1 $end
$var wire 1 *" temp2 $end
$upscope $end
$scope module MemToReg_mux $end
$var wire 1 g A $end
$var wire 1 o B $end
$var wire 1 + out $end
$var wire 1 s sel $end
$var wire 1 +" temp1 $end
$var wire 1 ," temp2 $end
$upscope $end
$scope module RegDst_mux $end
$var wire 1 i A $end
$var wire 1 q B $end
$var wire 1 1 out $end
$var wire 1 s sel $end
$var wire 1 -" temp1 $end
$var wire 1 ." temp2 $end
$upscope $end
$upscope $end
$scope module rf $end
$var wire 1 4 clock $end
$var wire 32 /" internal_rdData [31:0] $end
$var wire 32 0" rdData [31:0] $end
$var wire 5 1" rdNum [4:0] $end
$var wire 1 2 rdWriteEnable $end
$var wire 1 E reset $end
$var wire 32 2" rsData [31:0] $end
$var wire 5 3" rsNum [4:0] $end
$var wire 32 4" rtData [31:0] $end
$var wire 5 5" rtNum [4:0] $end
$var integer 32 6" i [31:0] $end
$upscope $end
$scope module imm_mux $end
$var wire 32 7" A [31:0] $end
$var wire 32 8" B [31:0] $end
$var wire 32 9" out [31:0] $end
$var wire 1 ' sel $end
$var wire 32 :" temp1 [31:0] $end
$var wire 32 ;" temp2 [31:0] $end
$upscope $end
$scope module alu $end
$var wire 3 <" control [2:0] $end
$var wire 32 =" inA [31:0] $end
$var wire 32 >" inB [31:0] $end
$var wire 1 ; negative $end
$var wire 32 ?" out [31:0] $end
$var wire 1 J zero $end
$upscope $end
$scope module data_memory $end
$var wire 32 @" addr [31:0] $end
$var wire 1 4 clk $end
$var wire 32 A" d_out [31:0] $end
$var wire 32 B" data_in [31:0] $end
$var wire 32 C" data_out [31:0] $end
$var wire 19 D" index [18:0] $end
$var wire 32 E" internal_data_in [31:0] $end
$var wire 1 * mem_read $end
$var wire 1 , mem_write $end
$var wire 1 E reset $end
$var wire 1 F" valid_address $end
$var integer 32 G" i [31:0] $end
$upscope $end
$scope module wb_mux $end
$var wire 32 H" A [31:0] $end
$var wire 32 I" B [31:0] $end
$var wire 32 J" out [31:0] $end
$var wire 1 + sel $end
$var wire 32 K" temp1 [31:0] $end
$var wire 32 L" temp2 [31:0] $end
$upscope $end
$scope module rd_mux $end
$var wire 5 M" A [4:0] $end
$var wire 5 N" B [4:0] $end
$var wire 5 O" out [4:0] $end
$var wire 1 1 sel $end
$var wire 5 P" temp1 [4:0] $end
$var wire 5 Q" temp2 [4:0] $end
$upscope $end
$scope module rto_mux $end
$var wire 5 R" A [4:0] $end
$var wire 5 S" B [4:0] $end
$var wire 5 T" out [4:0] $end
$var wire 1 9 sel $end
$var wire 5 U" temp1 [4:0] $end
$var wire 5 V" temp2 [4:0] $end
$upscope $end
$scope module data_mux $end
$var wire 32 W" A [31:0] $end
$var wire 32 X" B [31:0] $end
$var wire 32 Y" out [31:0] $end
$var wire 1 9 sel $end
$var wire 32 Z" temp1 [31:0] $end
$var wire 32 [" temp2 [31:0] $end
$upscope $end
$upscope $end
$upscope $end
$scope module test $end
$scope module m $end
$scope module rf $end
$var reg 32 \" \r[0] [31:0] $end
$upscope $end
$upscope $end
$upscope $end
$scope module test $end
$scope module m $end
$scope module rf $end
$var reg 32 ]" \r[1] [31:0] $end
$upscope $end
$upscope $end
$upscope $end
$scope module test $end
$scope module m $end
$scope module rf $end
$var reg 32 ^" \r[2] [31:0] $end
$upscope $end
$upscope $end
$upscope $end
$scope module test $end
$scope module m $end
$scope module rf $end
$var reg 32 _" \r[3] [31:0] $end
$upscope $end
$upscope $end
$upscope $end
$scope module test $end
$scope module m $end
$scope module rf $end
$var reg 32 `" \r[4] [31:0] $end
$upscope $end
$upscope $end
$upscope $end
$scope module test $end
$scope module m $end
$scope module rf $end
$var reg 32 a" \r[5] [31:0] $end
$upscope $end
$upscope $end
$upscope $end
$scope module test $end
$scope module m $end
$scope module rf $end
$var reg 32 b" \r[6] [31:0] $end
$upscope $end
$upscope $end
$upscope $end
$scope module test $end
$scope module m $end
$scope module rf $end
$var reg 32 c" \r[7] [31:0] $end
$upscope $end
$upscope $end
$upscope $end
$scope module test $end
$scope module m $end
$scope module rf $end
$var reg 32 d" \r[8] [31:0] $end
$upscope $end
$upscope $end
$upscope $end
$scope module test $end
$scope module m $end
$scope module rf $end
$var reg 32 e" \r[9] [31:0] $end
$upscope $end
$upscope $end
$upscope $end
$scope module test $end
$scope module m $end
$scope module rf $end
$var reg 32 f" \r[10] [31:0] $end
$upscope $end
$upscope $end
$upscope $end
$scope module test $end
$scope module m $end
$scope module rf $end
$var reg 32 g" \r[11] [31:0] $end
$upscope $end
$upscope $end
$upscope $end
$scope module test $end
$scope module m $end
$scope module rf $end
$var reg 32 h" \r[12] [31:0] $end
$upscope $end
$upscope $end
$upscope $end
$scope module test $end
$scope module m $end
$scope module rf $end
$var reg 32 i" \r[13] [31:0] $end
$upscope $end
$upscope $end
$upscope $end
$scope module test $end
$scope module m $end
$scope module rf $end
$var reg 32 j" \r[14] [31:0] $end
$upscope $end
$upscope $end
$upscope $end
$scope module test $end
$scope module m $end
$scope module rf $end
$var reg 32 k" \r[15] [31:0] $end
$upscope $end
$upscope $end
$upscope $end
$scope module test $end
$scope module m $end
$scope module rf $end
$var reg 32 l" \r[16] [31:0] $end
$upscope $end
$upscope $end
$upscope $end
$scope module test $end
$scope module m $end
$scope module rf $end
$var reg 32 m" \r[17] [31:0] $end
$upscope $end
$upscope $end
$upscope $end
$scope module test $end
$scope module m $end
$scope module rf $end
$var reg 32 n" \r[18] [31:0] $end
$upscope $end
$upscope $end
$upscope $end
$scope module test $end
$scope module m $end
$scope module rf $end
$var reg 32 o" \r[19] [31:0] $end
$upscope $end
$upscope $end
$upscope $end
$scope module test $end
$scope module m $end
$scope module rf $end
$var reg 32 p" \r[20] [31:0] $end
$upscope $end
$upscope $end
$upscope $end
$scope module test $end
$scope module m $end
$scope module rf $end
$var reg 32 q" \r[21] [31:0] $end
$upscope $end
$upscope $end
$upscope $end
$scope module test $end
$scope module m $end
$scope module rf $end
$var reg 32 r" \r[22] [31:0] $end
$upscope $end
$upscope $end
$upscope $end
$scope module test $end
$scope module m $end
$scope module rf $end
$var reg 32 s" \r[23] [31:0] $end
$upscope $end
$upscope $end
$upscope $end
$scope module test $end
$scope module m $end
$scope module rf $end
$var reg 32 t" \r[24] [31:0] $end
$upscope $end
$upscope $end
$upscope $end
$scope module test $end
$scope module m $end
$scope module rf $end
$var reg 32 u" \r[25] [31:0] $end
$upscope $end
$upscope $end
$upscope $end
$scope module test $end
$scope module m $end
$scope module rf $end
$var reg 32 v" \r[26] [31:0] $end
$upscope $end
$upscope $end
$upscope $end
$scope module test $end
$scope module m $end
$scope module rf $end
$var reg 32 w" \r[27] [31:0] $end
$upscope $end
$upscope $end
$upscope $end
$scope module test $end
$scope module m $end
$scope module rf $end
$var reg 32 x" \r[28] [31:0] $end
$upscope $end
$upscope $end
$upscope $end
$scope module test $end
$scope module m $end
$scope module rf $end
$var reg 32 y" \r[29] [31:0] $end
$upscope $end
$upscope $end
$upscope $end
$scope module test $end
$scope module m $end
$scope module rf $end
$var reg 32 z" \r[30] [31:0] $end
$upscope $end
$upscope $end
$upscope $end
$scope module test $end
$scope module m $end
$scope module rf $end
$var reg 32 {" \r[31] [31:0] $end
$upscope $end
$upscope $end
$upscope $end
$enddefinitions $end
#0
$dumpvars
b10000000000010000000000000000 {"
b10000000000010000000000000000 z"
b10000000000010000000000000000 y"
b10000000000010000000000000000 x"
b10000000000010000000000000000 w"
b10000000000010000000000000000 v"
b10000000000010000000000000000 u"
b10000000000010000000000000000 t"
b10000000000010000000000000000 s"
b10000000000010000000000000000 r"
b10000000000010000000000000000 q"
b10000000000010000000000000000 p"
b10000000000010000000000000000 o"
b10000000000010000000000000000 n"
b10000000000010000000000000000 m"
b10000000000010000000000000000 l"
b10000000000010000000000000000 k"
b10000000000010000000000000000 j"
b10000000000010000000000000000 i"
b10000000000010000000000000000 h"
b10000000000010000000000000000 g"
b10000000000010000000000000000 f"
b10000000000010000000000000000 e"
b10000000000010000000000000000 d"
b10000000000010000000000000000 c"
b10000000000010000000000000000 b"
b10000000000010000000000000000 a"
b10000000000010000000000000000 `"
b10000000000010000000000000000 _"
b10000000000010000000000000000 ^"
b10000000000010000000000000000 ]"
b0 \"
bx00 ["
bx Z"
bx Y"
bx00 X"
bx W"
bx V"
bx U"
bx T"
b11111 S"
bx R"
bx Q"
bx P"
bx O"
bx N"
bx M"
bx L"
bx K"
bx J"
bx I"
bx H"
b1000000000000000000 G"
xF"
bx E"
bx D"
bx C"
bx B"
bx A"
bx @"
bx ?"
bx >"
bx ="
bx <"
bx ;"
bx :"
bx 9"
bx 8"
bx 7"
b100000 6"
bx 5"
bx 4"
bx 3"
bx 2"
bx 1"
bx 0"
bx /"
0."
x-"
0,"
x+"
0*"
x)"
0("
x'"
0&"
x%"
0$"
x#"
x""
x!"
b0 ~
bx }
bx |
b0 {
bx z
bx y
xx
xw
bx v
bx u
bx t
xs
1r
0q
0p
0o
0n
0m
0l
b0 k
xj
xi
xh
xg
xf
xe
xd
bx c
bx b
bx a
b100000000 `
bx _
bx ^
bx ]
bx \
bx [
bx Z
bx Y
bx X
bx W
bx V
bx U
bx T
bx S
bx R
bx Q
bx P
b1 O
bx N
bx M
1L
bx K
xJ
bx I
bx H
bx G
bx F
1E
bx D
bx C
bx B
bx A
bx @
bx ?
bx >
bx =
bx00 <
x;
bx :
x9
bx 8
bx 7
bx 6
bx 5
04
bx 3
x2
x1
bx 0
bx /
x.
bx00 -
x,
x+
x*
bx )
x(
x'
bx &
1%
b100000 $
0#
0"
bx00 !
$end
#5
b1 /"
b1 H
b1 0"
b1 Y"
b1 Z"
b1 @
b1 J"
b1 W"
b1 L"
b1 :
b1 C"
b1 I"
b1 A"
1F"
0J
b100000000000000 D"
b0 &
b0 a
b0 |
b0 <"
0;
b0 }
b10000000000010000000000000000 3
b10000000000010000000000000000 ?"
b10000000000010000000000000000 @"
b10000000000010000000000000000 H"
b0 c
b0 u
b0 z
12
b100000000000000000001 >
b100000000000000000001 K
b100000000000000000001 [
b0 K"
1!"
b100000000000000000001 \
b10 I
b10 1"
b10 T"
1*
1+
0.
01
1'
1j
b100000000000000000001 ?
b100000000000000000001 V
b100000000000000000001 Y
b10 U"
b0 V"
0""
1'"
1+"
0(
0-"
0,
1%"
b10 5
b10 O"
b10 R"
b0 ]
b0 X
b0 )
b0 9"
b0 >"
09
0s
0#"
0i
0)"
1d
0w
b0 Q"
b0 :"
b10 P"
b100000000000100000000000000 =
b100000000000100000000000000 Z
b0 R
b100000000000000000001 0
b100000000000000000001 S
b100000000000000000001 U
b0 ;"
b0 6
b0 b
b0 v
0e
1g
1f
0h
0x
b100011 A
b100011 t
b100011 y
b0 B
b0 N"
b10000000000010000000000000000 E"
b10000000000010000000000000000 D
b10000000000010000000000000000 4"
b10000000000010000000000000000 7"
b10000000000010000000000000000 B"
b10 G
b10 5"
b10 M"
b10000000000010000000000000000 C
b10000000000010000000000000000 2"
b10000000000010000000000000000 ="
b10100 F
b10100 3"
b0 7
b0 8"
b100000000000000000001 W
b0 ["
b10001110100000100000000000000000 8
b10001110100000100000000000000000 _
b100000000000000000000 N
b10000000000000000000100 <
b10000000000000000000100 X"
b100000000000000000001 /
b100000000000000000001 P
b100000000000000000001 Q
b100000000000000000001 T
b100000000000000000000 ^
b100000000000000000000 M
b10000000000000000000000 -
b10000000000000000000000 !
1"
14
#7
0%
0E
#10
0"
04
#15
b11111111 /"
b11111111 H
b11111111 0"
b11111111 Y"
b11111111 Z"
b11111111 @
b11111111 J"
b11111111 W"
b11111111 L"
b11111111 :
b11111111 C"
b11111111 I"
b11111111 A"
b100000000000001 D"
b10000000000010000000000000100 3
b10000000000010000000000000100 ?"
b10000000000010000000000000100 @"
b10000000000010000000000000100 H"
b11 I
b11 1"
b11 T"
b11 U"
b100000000000000000010 >
b100000000000000000010 K
b100000000000000000010 [
b11 5
b11 O"
b11 R"
b100 )
b100 9"
b100 >"
b100000000000000000010 \
b11 P"
b100 R
b100 ;"
b100000000000000000010 ?
b100000000000000000010 V
b100000000000000000010 Y
b100 6
b100 b
b100 v
b11 G
b11 5"
b11 M"
b100 7
b100 8"
b100000000000000000010 W
b10001110100000110000000000000100 8
b10001110100000110000000000000100 _
b100000000000000000001 N
b100000000000000000110 0
b100000000000000000110 S
b100000000000000000110 U
b10000000000000000001000 <
b10000000000000000001000 X"
b100000000000000000010 /
b100000000000000000010 P
b100000000000000000010 Q
b100000000000000000010 T
b100000000000000000001 ^
b1 ^"
b10000000000010000000000000000 E"
b10000000000010000000000000000 D
b10000000000010000000000000000 4"
b10000000000010000000000000000 7"
b10000000000010000000000000000 B"
b100000000000000000001 M
b10000000000000000000100 -
b10000000000000000000100 !
1"
14
#20
0"
04
#25
b10000000000000000100000 /"
b10000000000000000100000 H
b10000000000000000100000 0"
b10000000000000000100000 Y"
b10000000000000000100000 Z"
b10000000000000000100000 @
b10000000000000000100000 J"
b10000000000000000100000 W"
b10000000000000000100000 L"
b10000000000000000100000 :
b10000000000000000100000 C"
b10000000000000000100000 I"
b10000000000000000100000 A"
b100000000000011 D"
b10000000000010000000000001100 3
b10000000000010000000000001100 ?"
b10000000000010000000000001100 @"
b10000000000010000000000001100 H"
b101 I
b101 1"
b101 T"
b101 U"
b100000000000000000011 >
b100000000000000000011 K
b100000000000000000011 [
b101 5
b101 O"
b101 R"
b1100 )
b1100 9"
b1100 >"
b100000000000000000011 \
b101 P"
b1100 R
b1100 ;"
b100000000000000000011 ?
b100000000000000000011 V
b100000000000000000011 Y
b1100 6
b1100 b
b1100 v
b101 G
b101 5"
b101 M"
b1100 7
b1100 8"
b100000000000000000011 W
b10001110100001010000000000001100 8
b10001110100001010000000000001100 _
b100000000000000000010 N
b100000000000000001111 0
b100000000000000001111 S
b100000000000000001111 U
b10000000000000000001100 <
b10000000000000000001100 X"
b100000000000000000011 /
b100000000000000000011 P
b100000000000000000011 Q
b100000000000000000011 T
b100000000000000000010 ^
b100000000000000000010 M
b10000000000000000001000 -
b10000000000000000001000 !
b11111111 _"
b10000000000010000000000000000 E"
b10000000000010000000000000000 D
b10000000000010000000000000000 4"
b10000000000010000000000000000 7"
b10000000000010000000000000000 B"
1"
14
#30
0"
04
#35
b10000000000000000101000 /"
b10000000000000000101000 H
b10000000000000000101000 0"
b10000000000000000101000 Y"
b10000000000000000101000 Z"
b10000000000000000101000 @
b10000000000000000101000 J"
b10000000000000000101000 W"
b10000000000000000101000 L"
b10000000000000000101000 :
b10000000000000000101000 C"
b10000000000000000101000 I"
b10000000000000000101000 A"
b100000000000100 D"
b10000000000010000000000010000 3
b10000000000010000000000010000 ?"
b10000000000010000000000010000 @"
b10000000000010000000000010000 H"
b110 I
b110 1"
b110 T"
b110 U"
b100000000000000000100 >
b100000000000000000100 K
b100000000000000000100 [
b110 5
b110 O"
b110 R"
b10000 )
b10000 9"
b10000 >"
b100000000000000000100 \
b110 P"
b10000 R
b10000 ;"
b100000000000000000100 ?
b100000000000000000100 V
b100000000000000000100 Y
b10000 6
b10000 b
b10000 v
b110 G
b110 5"
b110 M"
b10000 7
b10000 8"
b100000000000000000100 W
b10001110100001100000000000010000 8
b10001110100001100000000000010000 _
b100000000000000000011 N
b100000000000000010100 0
b100000000000000010100 S
b100000000000000010100 U
b10000000000000000010000 <
b10000000000000000010000 X"
b100000000000000000100 /
b100000000000000000100 P
b100000000000000000100 Q
b100000000000000000100 T
b100000000000000000011 ^
b10000000000000000100000 a"
b10000000000010000000000000000 E"
b10000000000010000000000000000 D
b10000000000010000000000000000 4"
b10000000000010000000000000000 7"
b10000000000010000000000000000 B"
b100000000000000000011 M
b10000000000000000001100 -
b10000000000000000001100 !
1"
14
#40
0"
04
#45
b11011110101011011011111011101111 A"
b1000 D"
b10000000000000000100000 @
b10000000000000000100000 J"
b10000000000000000100000 W"
0F"
b11111 I
b11111 1"
b11111 T"
b10000000000000000010100 /"
b10000000000000000010100 H
b10000000000000000010100 0"
b10000000000000000010100 Y"
b0 :
b0 C"
b0 I"
b10000000000000000100000 K"
b0 L"
0'
b10000000000000000100000 3
b10000000000000000100000 ?"
b10000000000000000100000 @"
b10000000000000000100000 H"
b100000000000000001000 >
b100000000000000001000 K
b100000000000000001000 [
b0 U"
b11111 V"
b0 Z"
b10000000000000000010100 ["
0!"
1""
0*
0+
0%"
b0 5
b0 O"
b0 R"
b100000000000000001000 ]
b0 )
b0 9"
b0 >"
b0 \
19
1s
0'"
1i
0+"
0d
b0 P"
b100000000000000001000 =
b100000000000000001000 Z
b111111111111111111100000001001 R
b0 ;"
b100000000000000000101 ?
b100000000000000000101 V
b100000000000000000101 Y
b1001 6
b1001 b
b1001 v
0g
0f
1x
b0 A
b0 t
b0 y
b11111 B
b11111 N"
b0 G
b0 5"
b0 M"
b10000000000000000100000 C
b10000000000000000100000 2"
b10000000000000000100000 ="
b101 F
b101 3"
b11111111111111111111100000001001 7
b11111111111111111111100000001001 8"
b100000000000000000101 W
b101000001111100000001001 8
b101000001111100000001001 _
b100000000000000000100 N
b11111111100000001110 0
b11111111100000001110 S
b11111111100000001110 U
b10000000000000000010100 <
b10000000000000000010100 X"
b100000000000000000101 /
b100000000000000000101 P
b100000000000000000101 Q
b100000000000000000101 T
b100000000000000000100 ^
b100000000000000000100 M
b10000000000000000010000 -
b10000000000000000010000 !
b10000000000000000101000 b"
b0 E"
b0 D
b0 4"
b0 7"
b0 B"
1"
14
#50
0"
04
#55
b0 D"
b10 @
b10 J"
b10 W"
b111 Q"
b10 K"
b111 I
b111 1"
b111 T"
11
b10 3
b10 ?"
b10 @"
b10 H"
b100000000000000001001 >
b100000000000000001001 K
b100000000000000001001 [
b111 U"
b0 V"
b10 Z"
1!"
0""
1-"
b1 )
b1 9"
b1 >"
b111 5
b111 O"
b111 R"
b0 ]
b100000000000000001001 \
09
0s
b1 :"
b0 P"
b0 =
b0 Z
b11100000100000 R
b100000000000000001001 ?
b100000000000000001001 V
b100000000000000001001 Y
b10 /"
b10 H
b10 0"
b10 Y"
b100000 6
b100000 b
b100000 v
b111 B
b111 N"
b1 E"
b1 D
b1 4"
b1 7"
b1 B"
b10 G
b10 5"
b10 M"
b1 C
b1 2"
b1 ="
b10 F
b10 3"
b11100000100000 7
b11100000100000 8"
b100000000000000001001 W
b0 ["
b10000100011100000100000 8
b10000100011100000100000 _
b100000000000000001000 N
b100000011100000101001 0
b100000011100000101001 S
b100000011100000101001 U
b10000000000000000100100 <
b10000000000000000100100 X"
b100000000000000001001 /
b100000000000000001001 P
b100000000000000001001 Q
b100000000000000001001 T
b100000000000000001000 ^
b10000000000000000010100 {"
b100000000000000001000 M
b10000000000000000100000 -
b10000000000000000100000 !
1"
14
#60
0"
04
#65
b101 D"
b10000000000000000010100 @
b10000000000000000010100 J"
b10000000000000000010100 W"
b10000000000000000010100 K"
b11111 I
b11111 1"
b11111 T"
b10000000000000000101000 /"
b10000000000000000101000 H
b10000000000000000101000 0"
b10000000000000000101000 Y"
01
b10000000000000000010100 3
b10000000000000000010100 ?"
b10000000000000000010100 @"
b10000000000000000010100 H"
b100000000000000000101 >
b100000000000000000101 K
b100000000000000000101 [
b0 U"
b11111 V"
b0 Z"
b10000000000000000101000 ["
0!"
1""
0-"
b0 5
b0 O"
b0 R"
b0 )
b0 9"
b0 >"
b100000000000000000101 ]
b0 \
19
1s
b0 Q"
b0 :"
b100000000000000000101 =
b100000000000000000101 Z
b111111111111111111100000001001 R
b100000000000000001010 ?
b100000000000000001010 V
b100000000000000001010 Y
b1001 6
b1001 b
b1001 v
b11111 B
b11111 N"
b0 E"
b0 D
b0 4"
b0 7"
b0 B"
b0 G
b0 5"
b0 M"
b10000000000000000010100 C
b10000000000000000010100 2"
b10000000000000000010100 ="
b11111 F
b11111 3"
b11111111111111111111100000001001 7
b11111111111111111111100000001001 8"
b100000000000000001010 W
b11111000001111100000001001 8
b11111000001111100000001001 _
b100000000000000001001 N
b11111111100000010011 0
b11111111100000010011 S
b11111111100000010011 U
b10000000000000000101000 <
b10000000000000000101000 X"
b100000000000000001010 /
b100000000000000001010 P
b100000000000000001010 Q
b100000000000000001010 T
b100000000000000001001 ^
b100000000000000001001 M
b10000000000000000100100 -
b10000000000000000100100 !
b10 c"
1"
14
#70
0"
04
#75
b1000 Q"
b1000 I
b1000 1"
b1000 T"
11
b1000000 D"
b100000001 @
b100000001 J"
b100000001 W"
b1000 U"
b0 V"
b100000001 Z"
1!"
0""
1-"
b11111111 )
b11111111 9"
b11111111 >"
b1000 5
b1000 O"
b1000 R"
b100000001 K"
b100000000000000000110 \
09
0s
b11111111 :"
b0 P"
b100000000100000 R
b100000001 3
b100000001 ?"
b100000001 @"
b100000001 H"
b100000000000000000110 >
b100000000000000000110 K
b100000000000000000110 [
b100000000000000000110 ?
b100000000000000000110 V
b100000000000000000110 Y
b100000001 /"
b100000001 H
b100000001 0"
b100000001 Y"
b100000 6
b100000 b
b100000 v
b1000 B
b1000 N"
b11111111 E"
b11111111 D
b11111111 4"
b11111111 7"
b11111111 B"
b11 G
b11 5"
b11 M"
b111 F
b111 3"
b100000000100000 7
b100000000100000 8"
b0 ]
b100000000000000000110 W
b0 ["
b111000110100000000100000 8
b111000110100000000100000 _
b0 =
b0 Z
b100000000000000000101 N
b100000100000000100110 0
b100000100000000100110 S
b100000100000000100110 U
b10000000000000000011000 <
b10000000000000000011000 X"
b100000000000000000110 /
b100000000000000000110 P
b100000000000000000110 Q
b100000000000000000110 T
b100000000000000000101 ^
b10000000000000000101000 {"
b10 C
b10 2"
b10 ="
b100000000000000000101 M
b10000000000000000010100 -
b10000000000000000010100 !
1"
14
#80
0"
04
#85
b1010 D"
b10000000000000000101000 @
b10000000000000000101000 J"
b10000000000000000101000 W"
b10000000000000000101000 K"
b11111 I
b11111 1"
b11111 T"
b10000000000000000011100 /"
b10000000000000000011100 H
b10000000000000000011100 0"
b10000000000000000011100 Y"
01
b10000000000000000101000 3
b10000000000000000101000 ?"
b10000000000000000101000 @"
b10000000000000000101000 H"
b100000000000000001010 >
b100000000000000001010 K
b100000000000000001010 [
b0 U"
b11111 V"
b0 Z"
b10000000000000000011100 ["
0!"
1""
0-"
b0 5
b0 O"
b0 R"
b0 )
b0 9"
b0 >"
b100000000000000001010 ]
b0 \
19
1s
b0 Q"
b0 :"
b100000000000000001010 =
b100000000000000001010 Z
b111111111111111111100000001001 R
b100000000000000000111 ?
b100000000000000000111 V
b100000000000000000111 Y
b1001 6
b1001 b
b1001 v
b11111 B
b11111 N"
b0 E"
b0 D
b0 4"
b0 7"
b0 B"
b0 G
b0 5"
b0 M"
b10000000000000000101000 C
b10000000000000000101000 2"
b10000000000000000101000 ="
b110 F
b110 3"
b11111111111111111111100000001001 7
b11111111111111111111100000001001 8"
b100000000000000000111 W
b110000001111100000001001 8
b110000001111100000001001 _
b100000000000000000110 N
b11111111100000010000 0
b11111111100000010000 S
b11111111100000010000 U
b10000000000000000011100 <
b10000000000000000011100 X"
b100000000000000000111 /
b100000000000000000111 P
b100000000000000000111 Q
b100000000000000000111 T
b100000000000000000110 ^
b100000000000000000110 M
b10000000000000000011000 -
b10000000000000000011000 !
b100000001 d"
1"
14
#90
0"
04
