practice exam/Exam3/Q3_SWPLUS/m.vcd
$date
	Mon Mar 13 11:27:08 2017
$end
$version
	Icarus Verilog
$end
$timescale
	1s
$end
$scope module test $end
$var wire 32 ! PC [31:0] $end
$var reg 1 " clk $end
$var reg 1 # done $end
$var integer 32 $ i [31:0] $end
$var reg 1 % reset $end
$scope module m $end
$var wire 3 & ALUOp [2:0] $end
$var wire 1 ' ALUSrc $end
$var wire 1 ( BEQ $end
$var wire 32 ) B_data [31:0] $end
$var wire 1 * MemRead $end
$var wire 1 + MemToReg $end
$var wire 1 , MemWrite $end
$var wire 32 - PC [31:0] $end
$var wire 1 . PCSrc $end
$var wire 30 / PC_plus4 [31:2] $end
$var wire 30 0 PC_target [31:2] $end
$var wire 1 1 RegDst $end
$var wire 1 2 RegWrite $end
$var wire 32 3 alu_out_data [31:0] $end
$var wire 1 4 clk $end
$var wire 6 5 funct [5:0] $end
$var wire 32 6 imm [31:0] $end
$var wire 32 7 inst [31:0] $end
$var wire 32 8 load_data [31:0] $end
$var wire 1 9 negative $end
$var wire 32 : new_write_data [31:0] $end
$var wire 30 ; next_PC [31:2] $end
$var wire 5 < old_dest [4:0] $end
$var wire 32 = old_write_data [31:0] $end
$var wire 6 > opcode [5:0] $end
$var wire 5 ? rd [4:0] $end
$var wire 32 @ rd1_data [31:0] $end
$var wire 32 A rd2_data [31:0] $end
$var wire 1 B reset $end
$var wire 5 C rs [4:0] $end
$var wire 5 D rt [4:0] $end
$var wire 1 E swplus $end
$var wire 32 F wr_data [31:0] $end
$var wire 5 G wr_regnum [4:0] $end
$var wire 1 H zero $end
$scope module PC_reg $end
$var wire 1 4 clk $end
$var wire 30 I d [29:0] $end
$var wire 1 J enable $end
$var wire 1 B reset $end
$var reg 30 K q [29:0] $end
$upscope $end
$scope module next_PC_adder $end
$var wire 30 L in1 [29:0] $end
$var wire 30 M in2 [29:0] $end
$var wire 30 N out [29:0] $end
$upscope $end
$scope module target_PC_adder $end
$var wire 30 O in1 [29:0] $end
$var wire 30 P in2 [29:0] $end
$var wire 30 Q out [29:0] $end
$upscope $end
$scope module branch_mux $end
$var wire 30 R A [29:0] $end
$var wire 30 S B [29:0] $end
$var wire 30 T out [29:0] $end
$var wire 1 . sel $end
$var wire 30 U temp1 [29:0] $end
$var wire 30 V temp2 [29:0] $end
$upscope $end
$scope module imem $end
$var wire 30 W addr [29:0] $end
$var wire 32 X data [31:0] $end
$var reg 32 Y i [31:0] $end
$upscope $end
$scope module decode $end
$var wire 3 Z ALUOp [2:0] $end
$var wire 1 ' ALUSrc $end
$var wire 1 ( BEQ $end
$var wire 1 * MemRead $end
$var wire 1 + MemToReg $end
$var wire 1 , MemWrite $end
$var wire 1 1 RegDst $end
$var wire 1 2 RegWrite $end
$var wire 6 [ funct [5:0] $end
$var wire 3 \ given_ALUOp [2:0] $end
$var wire 1 ] given_ALUSrc $end
$var wire 1 ^ given_BEQ $end
$var wire 1 _ given_MemRead $end
$var wire 1 ` given_MemToReg $end
$var wire 1 a given_MemWrite $end
$var wire 1 b given_RegDst $end
$var wire 1 c given_RegWrite $end
$var wire 3 d new_ALUOp [2:0] $end
$var wire 1 e new_ALUSrc $end
$var wire 1 f new_BEQ $end
$var wire 1 g new_MemRead $end
$var wire 1 h new_MemToReg $end
$var wire 1 i new_MemWrite $end
$var wire 1 j new_RegDst $end
$var wire 1 k new_RegWrite $end
$var wire 1 l new_inst $end
$var wire 6 m opcode [5:0] $end
$var wire 1 E swplus $end
$scope module given $end
$var wire 3 n ALUOp [2:0] $end
$var wire 1 ] ALUSrc $end
$var wire 1 ^ BEQ $end
$var wire 1 _ MemRead $end
$var wire 1 ` MemToReg $end
$var wire 1 a MemWrite $end
$var wire 1 b RegDst $end
$var wire 1 c RegWrite $end
$var wire 6 o funct [5:0] $end
$var wire 1 p nop $end
$var wire 1 q op0 $end
$var wire 6 r opcode [5:0] $end
$upscope $end
$scope module ALUOp_mux $end
$var wire 3 s A [2:0] $end
$var wire 3 t B [2:0] $end
$var wire 3 u out [2:0] $end
$var wire 1 l sel $end
$var wire 3 v temp1 [2:0] $end
$var wire 3 w temp2 [2:0] $end
$upscope $end
$scope module RegWrite_mux $end
$var wire 1 c A $end
$var wire 1 k B $end
$var wire 1 2 out $end
$var wire 1 l sel $end
$var wire 1 x temp1 $end
$var wire 1 y temp2 $end
$upscope $end
$scope module BEQ_mux $end
$var wire 1 ^ A $end
$var wire 1 f B $end
$var wire 1 ( out $end
$var wire 1 l sel $end
$var wire 1 z temp1 $end
$var wire 1 { temp2 $end
$upscope $end
$scope module ALUSrc_mux $end
$var wire 1 ] A $end
$var wire 1 e B $end
$var wire 1 ' out $end
$var wire 1 l sel $end
$var wire 1 | temp1 $end
$var wire 1 } temp2 $end
$upscope $end
$scope module MemRead_mux $end
$var wire 1 _ A $end
$var wire 1 g B $end
$var wire 1 * out $end
$var wire 1 l sel $end
$var wire 1 ~ temp1 $end
$var wire 1 !" temp2 $end
$upscope $end
$scope module MemWrite_mux $end
$var wire 1 a A $end
$var wire 1 i B $end
$var wire 1 , out $end
$var wire 1 l sel $end
$var wire 1 "" temp1 $end
$var wire 1 #" temp2 $end
$upscope $end
$scope module MemToReg_mux $end
$var wire 1 ` A $end
$var wire 1 h B $end
$var wire 1 + out $end
$var wire 1 l sel $end
$var wire 1 $" temp1 $end
$var wire 1 %" temp2 $end
$upscope $end
$scope module RegDst_mux $end
$var wire 1 b A $end
$var wire 1 j B $end
$var wire 1 1 out $end
$var wire 1 l sel $end
$var wire 1 &" temp1 $end
$var wire 1 '" temp2 $end
$upscope $end
$upscope $end
$scope module rf $end
$var wire 1 4 clock $end
$var wire 32 (" internal_rdData [31:0] $end
$var wire 32 )" rdData [31:0] $end
$var wire 5 *" rdNum [4:0] $end
$var wire 1 2 rdWriteEnable $end
$var wire 1 B reset $end
$var wire 32 +" rsData [31:0] $end
$var wire 5 ," rsNum [4:0] $end
$var wire 32 -" rtData [31:0] $end
$var wire 5 ." rtNum [4:0] $end
$var integer 32 /" i [31:0] $end
$upscope $end
$scope module imm_mux $end
$var wire 32 0" A [31:0] $end
$var wire 32 1" B [31:0] $end
$var wire 32 2" out [31:0] $end
$var wire 1 ' sel $end
$var wire 32 3" temp1 [31:0] $end
$var wire 32 4" temp2 [31:0] $end
$upscope $end
$scope module alu $end
$var wire 3 5" control [2:0] $end
$var wire 32 6" inA [31:0] $end
$var wire 32 7" inB [31:0] $end
$var wire 1 9 negative $end
$var wire 32 8" out [31:0] $end
$var wire 1 H zero $end
$upscope $end
$scope module data_memory $end
$var wire 32 9" addr [31:0] $end
$var wire 1 4 clk $end
$var wire 32 :" d_out [31:0] $end
$var wire 32 ;" data_in [31:0] $end
$var wire 32 <" data_out [31:0] $end
$var wire 19 =" index [18:0] $end
$var wire 32 >" internal_data_in [31:0] $end
$var wire 1 * mem_read $end
$var wire 1 , mem_write $end
$var wire 1 B reset $end
$var wire 1 ?" valid_address $end
$var integer 32 @" i [31:0] $end
$upscope $end
$scope module wb_mux $end
$var wire 32 A" A [31:0] $end
$var wire 32 B" B [31:0] $end
$var wire 32 C" out [31:0] $end
$var wire 1 + sel $end
$var wire 32 D" temp1 [31:0] $end
$var wire 32 E" temp2 [31:0] $end
$upscope $end
$scope module rd_mux $end
$var wire 5 F" A [4:0] $end
$var wire 5 G" B [4:0] $end
$var wire 5 H" out [4:0] $end
$var wire 1 1 sel $end
$var wire 5 I" temp1 [4:0] $end
$var wire 5 J" temp2 [4:0] $end
$upscope $end
$scope module writeReg $end
$var wire 5 K" A [4:0] $end
$var wire 5 L" B [4:0] $end
$var wire 5 M" out [4:0] $end
$var wire 1 E sel $end
$var wire 5 N" temp1 [4:0] $end
$var wire 5 O" temp2 [4:0] $end
$upscope $end
$scope module writedata $end
$var wire 32 P" A [31:0] $end
$var wire 32 Q" B [31:0] $end
$var wire 32 R" out [31:0] $end
$var wire 1 E sel $end
$var wire 32 S" temp1 [31:0] $end
$var wire 32 T" temp2 [31:0] $end
$upscope $end
$scope module addf $end
$var wire 3 U" control [2:0] $end
$var wire 32 V" inA [31:0] $end
$var wire 32 W" inB [31:0] $end
$var wire 1 X" negative $end
$var wire 32 Y" out [31:0] $end
$var wire 1 Z" zero $end
$upscope $end
$upscope $end
$upscope $end
$scope module test $end
$scope module m $end
$scope module rf $end
$var reg 32 [" \r[0] [31:0] $end
$upscope $end
$upscope $end
$upscope $end
$scope module test $end
$scope module m $end
$scope module rf $end
$var reg 32 \" \r[1] [31:0] $end
$upscope $end
$upscope $end
$upscope $end
$scope module test $end
$scope module m $end
$scope module rf $end
$var reg 32 ]" \r[2] [31:0] $end
$upscope $end
$upscope $end
$upscope $end
$scope module test $end
$scope module m $end
$scope module rf $end
$var reg 32 ^" \r[3] [31:0] $end
$upscope $end
$upscope $end
$upscope $end
$scope module test $end
$scope module m $end
$scope module rf $end
$var reg 32 _" \r[4] [31:0] $end
$upscope $end
$upscope $end
$upscope $end
$scope module test $end
$scope module m $end
$scope module rf $end
$var reg 32 `" \r[5] [31:0] $end
$upscope $end
$upscope $end
$upscope $end
$scope module test $end
$scope module m $end
$scope module rf $end
$var reg 32 a" \r[6] [31:0] $end
$upscope $end
$upscope $end
$upscope $end
$scope module test $end
$scope module m $end
$scope module rf $end
$var reg 32 b" \r[7] [31:0] $end
$upscope $end
$upscope $end
$upscope $end
$scope module test $end
$scope module m $end
$scope module rf $end
$var reg 32 c" \r[8] [31:0] $end
$upscope $end
$upscope $end
$upscope $end
$scope module test $end
$scope module m $end
$scope module rf $end
$var reg 32 d" \r[9] [31:0] $end
$upscope $end
$upscope $end
$upscope $end
$scope module test $end
$scope module m $end
$scope module rf $end
$var reg 32 e" \r[10] [31:0] $end
$upscope $end
$upscope $end
$upscope $end
$scope module test $end
$scope module m $end
$scope module rf $end
$var reg 32 f" \r[11] [31:0] $end
$upscope $end
$upscope $end
$upscope $end
$scope module test $end
$scope module m $end
$scope module rf $end
$var reg 32 g" \r[12] [31:0] $end
$upscope $end
$upscope $end
$upscope $end
$scope module test $end
$scope module m $end
$scope module rf $end
$var reg 32 h" \r[13] [31:0] $end
$upscope $end
$upscope $end
$upscope $end
$scope module test $end
$scope module m $end
$scope module rf $end
$var reg 32 i" \r[14] [31:0] $end
$upscope $end
$upscope $end
$upscope $end
$scope module test $end
$scope module m $end
$scope module rf $end
$var reg 32 j" \r[15] [31:0] $end
$upscope $end
$upscope $end
$upscope $end
$scope module test $end
$scope module m $end
$scope module rf $end
$var reg 32 k" \r[16] [31:0] $end
$upscope $end
$upscope $end
$upscope $end
$scope module test $end
$scope module m $end
$scope module rf $end
$var reg 32 l" \r[17] [31:0] $end
$upscope $end
$upscope $end
$upscope $end
$scope module test $end
$scope module m $end
$scope module rf $end
$var reg 32 m" \r[18] [31:0] $end
$upscope $end
$upscope $end
$upscope $end
$scope module test $end
$scope module m $end
$scope module rf $end
$var reg 32 n" \r[19] [31:0] $end
$upscope $end
$upscope $end
$upscope $end
$scope module test $end
$scope module m $end
$scope module rf $end
$var reg 32 o" \r[20] [31:0] $end
$upscope $end
$upscope $end
$upscope $end
$scope module test $end
$scope module m $end
$scope module rf $end
$var reg 32 p" \r[21] [31:0] $end
$upscope $end
$upscope $end
$upscope $end
$scope module test $end
$scope module m $end
$scope module rf $end
$var reg 32 q" \r[22] [31:0] $end
$upscope $end
$upscope $end
$upscope $end
$scope module test $end
$scope module m $end
$scope module rf $end
$var reg 32 r" \r[23] [31:0] $end
$upscope $end
$upscope $end
$upscope $end
$scope module test $end
$scope module m $end
$scope module rf $end
$var reg 32 s" \r[24] [31:0] $end
$upscope $end
$upscope $end
$upscope $end
$scope module test $end
$scope module m $end
$scope module rf $end
$var reg 32 t" \r[25] [31:0] $end
$upscope $end
$upscope $end
$upscope $end
$scope module test $end
$scope module m $end
$scope module rf $end
$var reg 32 u" \r[26] [31:0] $end
$upscope $end
$upscope $end
$upscope $end
$scope module test $end
$scope module m $end
$scope module rf $end
$var reg 32 v" \r[27] [31:0] $end
$upscope $end
$upscope $end
$upscope $end
$scope module test $end
$scope module m $end
$scope module rf $end
$var reg 32 w" \r[28] [31:0] $end
$upscope $end
$upscope $end
$upscope $end
$scope module test $end
$scope module m $end
$scope module rf $end
$var reg 32 x" \r[29] [31:0] $end
$upscope $end
$upscope $end
$upscope $end
$scope module test $end
$scope module m $end
$scope module rf $end
$var reg 32 y" \r[30] [31:0] $end
$upscope $end
$upscope $end
$upscope $end
$scope module test $end
$scope module m $end
$scope module rf $end
$var reg 32 z" \r[31] [31:0] $end
$upscope $end
$upscope $end
$upscope $end
$enddefinitions $end
#0
$dumpvars
b10000000000010000000000000000 z"
b10000000000010000000000000000 y"
b10000000000010000000000000000 x"
b10000000000010000000000000000 w"
b10000000000010000000000000000 v"
b10000000000010000000000000000 u"
b10000000000010000000000000000 t"
b10000000000010000000000000000 s"
b10000000000010000000000000000 r"
b10000000000010000000000000000 q"
b10000000000010000000000000000 p"
b10000000000010000000000000000 o"
b10000000000010000000000000000 n"
b10000000000010000000000000000 m"
b10000000000010000000000000000 l"
b10000000000010000000000000000 k"
b10000000000010000000000000000 j"
b10000000000010000000000000000 i"
b10000000000010000000000000000 h"
b10000000000010000000000000000 g"
b10000000000010000000000000000 f"
b10000000000010000000000000000 e"
b10000000000010000000000000000 d"
b10000000000010000000000000000 c"
b10000000000010000000000000000 b"
b10000000000010000000000000000 a"
b10000000000010000000000000000 `"
b10000000000010000000000000000 _"
b10000000000010000000000000000 ^"
b10000000000010000000000000000 ]"
b10000000000010000000000000000 \"
b0 ["
xZ"
bx Y"
xX"
b100 W"
bx V"
b0 U"
bx T"
bx S"
bx R"
bx Q"
bx P"
bx O"
bx N"
bx M"
bx L"
bx K"
bx J"
bx I"
bx H"
bx G"
bx F"
bx E"
bx D"
bx C"
bx B"
bx A"
b1000000000000000000 @"
x?"
bx >"
bx ="
bx <"
bx ;"
bx :"
bx 9"
bx 8"
bx 7"
bx 6"
bx 5"
bx 4"
bx 3"
bx 2"
bx 1"
bx 0"
b100000 /"
bx ."
bx -"
bx ,"
bx +"
bx *"
bx )"
bx ("
0'"
x&"
x%"
x$"
x#"
x""
0!"
x~
x}
x|
0{
xz
xy
xx
b0 w
bx v
bx u
b0 t
bx s
bx r
xq
xp
bx o
bx n
bx m
xl
1k
0j
1i
1h
0g
0f
1e
b0 d
xc
xb
xa
x`
x_
x^
x]
bx \
bx [
bx Z
b100000000 Y
bx X
bx W
bx V
bx U
bx T
bx S
bx R
bx Q
bx P
bx O
bx N
b1 M
bx L
bx K
1J
bx I
xH
bx G
bx F
xE
bx D
bx C
1B
bx A
bx @
bx ?
bx >
bx =
bx <
bx ;
bx :
x9
bx 8
bx 7
bx 6
bx 5
04
bx 3
x2
x1
bx 0
bx /
x.
bx00 -
x,
x+
x*
bx )
x(
x'
bx &
1%
b100000 $
0#
0"
bx00 !
$end
#5
b1 ("
b1 F
b1 )"
b1 R"
b1 S"
b1 =
b1 C"
b1 P"
b1 E"
b1 8
b1 <"
b1 B"
b1 :"
1?"
0H
b100000000000000 ="
b0 &
b0 Z
b0 u
b0 5"
09
b0 v
b10000000000010000000000000000 3
b10000000000010000000000000000 8"
b10000000000010000000000000000 9"
b10000000000010000000000000000 A"
b0 \
b0 n
b0 s
12
1x
b11 G
b11 *"
b11 M"
0X"
0.
b0 D"
1c
b11 N"
0Z"
b10000000000010000000000000100 :
b10000000000010000000000000100 Q"
b10000000000010000000000000100 Y"
b100000000000000000001 ;
b100000000000000000001 I
b100000000000000000001 T
1'
01
0(
1*
1+
0,
b11 <
b11 H"
b11 K"
b0 V
b0 )
b0 2"
b0 7"
0y
1|
0}
0#"
0%"
0&"
b0 T"
0z
1~
0b
1$"
0""
1]
0p
b0 J"
b0 3"
b11 I"
b0 O"
b0 P
b100000000000000000001 0
b100000000000000000001 Q
b100000000000000000001 S
b0 4"
b0 5
b0 [
b0 o
0l
0E
0^
1`
1_
0a
0q
b100011 >
b100011 m
b100011 r
b0 ?
b0 G"
b10000000000010000000000000000 >"
b10000000000010000000000000000 A
b10000000000010000000000000000 -"
b10000000000010000000000000000 0"
b10000000000010000000000000000 ;"
b11 D
b11 ."
b11 F"
b10000000000010000000000000000 @
b10000000000010000000000000000 +"
b10000000000010000000000000000 6"
b10000000000010000000000000000 V"
b10100 C
b10100 ,"
b10100 L"
b0 6
b0 1"
b100000000000000000001 U
b10001110100000110000000000000000 7
b10001110100000110000000000000000 X
b100000000000000000000 L
b100000000000000000001 /
b100000000000000000001 N
b100000000000000000001 O
b100000000000000000001 R
b100000000000000000000 W
b100000000000000000000 K
b10000000000000000000000 -
b10000000000000000000000 !
1"
14
#7
0%
0B
#10
0"
04
#15
b0 ("
b0 F
b0 )"
b0 R"
b0 D"
b0 S"
b11011110101011011011111011101111 :"
b0 ="
b10 J"
b0 =
b0 C"
b0 P"
b10 G
b10 *"
b10 M"
0?"
b0 8
b0 <"
b0 B"
11
b0 E"
0'
b10 N"
1H
b0 3
b0 8"
b0 9"
b0 A"
b100 :
b100 Q"
b100 Y"
0*
1&"
0+
0|
b10 <
b10 H"
b10 K"
b0 )
b0 2"
b0 7"
0~
1b
0$"
0]
b0 I"
b1000000100000 P
b0 4"
b100000000000000000010 ;
b100000000000000000010 I
b100000000000000000010 T
b100000 5
b100000 [
b100000 o
0`
0_
1q
b0 >
b0 m
b0 r
b10 ?
b10 G"
b0 D
b0 ."
b0 F"
b0 @
b0 +"
b0 6"
b0 V"
b0 C
b0 ,"
b0 L"
b1000000100000 6
b1000000100000 1"
b100000000000000000010 U
b1000000100000 7
b1000000100000 X
b100000000000000000001 L
b100000001000000100010 0
b100000001000000100010 Q
b100000001000000100010 S
b100000000000000000010 /
b100000000000000000010 N
b100000000000000000010 O
b100000000000000000010 R
b100000000000000000001 W
b1 ^"
b0 >"
b0 A
b0 -"
b0 0"
b0 ;"
b100000000000000000001 K
b10000000000000000000100 -
b10000000000000000000100 !
1"
14
#20
0"
04
#25
b1 :"
b100000000000000 ="
1?"
b10 I"
0H
b10000000000010000000000000000 3
b10000000000010000000000000000 8"
b10000000000010000000000000000 9"
b10000000000010000000000000000 A"
b10000000000010000000000000100 :
b10000000000010000000000000100 Q"
b10000000000010000000000000100 Y"
1'
1,
1+
01
b10000000000010000000000000100 ("
b10000000000010000000000000100 F
b10000000000010000000000000100 )"
b10000000000010000000000000100 R"
b10 <
b10 H"
b10 K"
b10100 G
b10100 *"
b10100 M"
0x
1y
1}
1#"
1%"
0&"
b0 N"
b10000000000010000000000000100 T"
b0 J"
b10100 O"
b0 P
b100000000000000000011 ;
b100000000000000000011 I
b100000000000000000011 T
b0 5
b0 [
b0 o
1l
1E
0q
b111011 >
b111011 m
b111011 r
b0 ?
b0 G"
b10 D
b10 ."
b10 F"
b10000000000010000000000000000 @
b10000000000010000000000000000 +"
b10000000000010000000000000000 6"
b10000000000010000000000000000 V"
b10100 C
b10100 ,"
b10100 L"
b0 6
b0 1"
b100000000000000000011 U
b11101110100000100000000000000000 7
b11101110100000100000000000000000 X
b100000000000000000010 L
b100000000000000000011 0
b100000000000000000011 Q
b100000000000000000011 S
b100000000000000000011 /
b100000000000000000011 N
b100000000000000000011 O
b100000000000000000011 R
b100000000000000000010 W
b100000000000000000010 K
b10000000000000000001000 -
b10000000000000000001000 !
b0 ]"
1"
14
#30
0"
04
#35
b1 S"
b1 =
b1 C"
b1 P"
b1 D"
0?"
b1 3"
b10 J"
0H
b0 ="
0'
0,
0+
11
b1 ("
b1 F
b1 )"
b1 R"
b10 <
b10 H"
b10 K"
b10 G
b10 *"
b10 M"
b1 )
b1 2"
b1 7"
1x
0y
0}
0#"
0%"
1&"
b10 N"
b0 T"
b0 I"
b0 O"
b1000000100000 P
b0 4"
b1 3
b1 8"
b1 9"
b1 A"
b100 :
b100 Q"
b100 Y"
b100000000000000000100 ;
b100000000000000000100 I
b100000000000000000100 T
b100000 5
b100000 [
b100000 o
0l
0E
1q
b0 >
b0 m
b0 r
b10 ?
b10 G"
b1 >"
b1 A
b1 -"
b1 0"
b1 ;"
b11 D
b11 ."
b11 F"
b10 C
b10 ,"
b10 L"
b1000000100000 6
b1000000100000 1"
b100000000000000000100 U
b10000110001000000100000 7
b10000110001000000100000 X
b100000000000000000011 L
b100000001000000100100 0
b100000001000000100100 Q
b100000001000000100100 S
b100000000000000000100 /
b100000000000000000100 N
b100000000000000000100 O
b100000000000000000100 R
b100000000000000000011 W
b11011110101011011011111011101111 :"
b10000000000010000000000000100 o"
b0 @
b0 +"
b0 6"
b0 V"
b100000000000000000011 K
b10000000000000000001100 -
b10000000000000000001100 !
1"
14
#40
0"
04
#45
b100000000000001 ="
b0 )
b0 2"
b0 7"
1?"
b0 3"
b10 I"
1'
1,
1+
01
b10 <
b10 H"
b10 K"
b10100 G
b10100 *"
b10100 M"
b0 =
b0 C"
b0 P"
b10000000000010000000000001000 ("
b10000000000010000000000001000 F
b10000000000010000000000001000 )"
b10000000000010000000000001000 R"
0x
1y
1}
1#"
1%"
0&"
b0 N"
b0 S"
b0 J"
b10100 O"
b0 P
b0 D"
b10000000000010000000000001000 T"
b100000000000000000101 ;
b100000000000000000101 I
b100000000000000000101 T
b0 5
b0 [
b0 o
1l
1E
0q
b111011 >
b111011 m
b111011 r
b0 ?
b0 G"
b10 D
b10 ."
b10 F"
b10100 C
b10100 ,"
b10100 L"
b0 6
b0 1"
b10000000000010000000000000100 3
b10000000000010000000000000100 8"
b10000000000010000000000000100 9"
b10000000000010000000000000100 A"
b10000000000010000000000001000 :
b10000000000010000000000001000 Q"
b10000000000010000000000001000 Y"
b100000000000000000101 U
b11101110100000100000000000000000 7
b11101110100000100000000000000000 X
b100000000000000000100 L
b100000000000000000101 0
b100000000000000000101 Q
b100000000000000000101 S
b100000000000000000101 /
b100000000000000000101 N
b100000000000000000101 O
b100000000000000000101 R
b100000000000000000100 W
b100000000000000000100 K
b10000000000000000010000 -
b10000000000000000010000 !
b1 ]"
b10000000000010000000000000100 @
b10000000000010000000000000100 +"
b10000000000010000000000000100 6"
b10000000000010000000000000100 V"
1"
14
#50
0"
04
#55
b10 S"
b10 =
b10 C"
b10 P"
0?"
b1 3"
b10 D"
b10 J"
b0 ="
0'
0,
0+
11
b10 ("
b10 F
b10 )"
b10 R"
b10 <
b10 H"
b10 K"
b10 G
b10 *"
b10 M"
b1 )
b1 2"
b1 7"
1x
0y
0}
0#"
0%"
1&"
b10 N"
b0 T"
b0 I"
b0 O"
b1000000100000 P
b0 4"
b10 3
b10 8"
b10 9"
b10 A"
b101 :
b101 Q"
b101 Y"
b100000000000000000110 ;
b100000000000000000110 I
b100000000000000000110 T
b100000 5
b100000 [
b100000 o
0l
0E
1q
b0 >
b0 m
b0 r
b10 ?
b10 G"
b11 D
b11 ."
b11 F"
b10 C
b10 ,"
b10 L"
b1000000100000 6
b1000000100000 1"
b100000000000000000110 U
b10000110001000000100000 7
b10000110001000000100000 X
b100000000000000000101 L
b100000001000000100110 0
b100000001000000100110 Q
b100000001000000100110 S
b100000000000000000110 /
b100000000000000000110 N
b100000000000000000110 O
b100000000000000000110 R
b100000000000000000101 W
b11011110101011011011111011101111 :"
b10000000000010000000000001000 o"
b1 @
b1 +"
b1 6"
b1 V"
b100000000000000000101 K
b10000000000000000010100 -
b10000000000000000010100 !
1"
14
#60
0"
04
#65
b100000000000010 ="
1?"
b10 I"
1'
1,
1+
01
b10 <
b10 H"
b10 K"
b0 )
b0 2"
b0 7"
b10100 G
b10100 *"
b10100 M"
b0 =
b0 C"
b0 P"
b10000000000010000000000001100 ("
b10000000000010000000000001100 F
b10000000000010000000000001100 )"
b10000000000010000000000001100 R"
0x
1y
1}
1#"
1%"
0&"
b0 N"
b0 S"
b0 J"
b0 3"
b10100 O"
b0 P
b0 D"
b10000000000010000000000001100 T"
b100000000000000000111 ;
b100000000000000000111 I
b100000000000000000111 T
b0 5
b0 [
b0 o
1l
1E
0q
b111011 >
b111011 m
b111011 r
b0 ?
b0 G"
b10 >"
b10 A
b10 -"
b10 0"
b10 ;"
b10 D
b10 ."
b10 F"
b10100 C
b10100 ,"
b10100 L"
b0 6
b0 1"
b10000000000010000000000001000 3
b10000000000010000000000001000 8"
b10000000000010000000000001000 9"
b10000000000010000000000001000 A"
b10000000000010000000000001100 :
b10000000000010000000000001100 Q"
b10000000000010000000000001100 Y"
b100000000000000000111 U
b11101110100000100000000000000000 7
b11101110100000100000000000000000 X
b100000000000000000110 L
b100000000000000000111 0
b100000000000000000111 Q
b100000000000000000111 S
b100000000000000000111 /
b100000000000000000111 N
b100000000000000000111 O
b100000000000000000111 R
b100000000000000000110 W
b100000000000000000110 K
b10000000000000000011000 -
b10000000000000000011000 !
b10 ]"
b10000000000010000000000001000 @
b10000000000010000000000001000 +"
b10000000000010000000000001000 6"
b10000000000010000000000001000 V"
1"
14
#70
0"
04
#75
b11 S"
b11 =
b11 C"
b11 P"
0?"
b1 3"
b11 D"
b10 J"
b0 ="
0'
0,
0+
11
b11 ("
b11 F
b11 )"
b11 R"
b10 <
b10 H"
b10 K"
b10 G
b10 *"
b10 M"
b1 )
b1 2"
b1 7"
1x
0y
0}
0#"
0%"
1&"
b10 N"
b0 T"
b0 I"
b0 O"
b1000000100000 P
b0 4"
b11 3
b11 8"
b11 9"
b11 A"
b110 :
b110 Q"
b110 Y"
b100000000000000001000 ;
b100000000000000001000 I
b100000000000000001000 T
b100000 5
b100000 [
b100000 o
0l
0E
1q
b0 >
b0 m
b0 r
b10 ?
b10 G"
b1 >"
b1 A
b1 -"
b1 0"
b1 ;"
b11 D
b11 ."
b11 F"
b10 C
b10 ,"
b10 L"
b1000000100000 6
b1000000100000 1"
b100000000000000001000 U
b10000110001000000100000 7
b10000110001000000100000 X
b100000000000000000111 L
b100000001000000101000 0
b100000001000000101000 Q
b100000001000000101000 S
b100000000000000001000 /
b100000000000000001000 N
b100000000000000001000 O
b100000000000000001000 R
b100000000000000000111 W
b11011110101011011011111011101111 :"
b10000000000010000000000001100 o"
b10 @
b10 +"
b10 6"
b10 V"
b100000000000000000111 K
b10000000000000000011100 -
b10000000000000000011100 !
1"
14
#80
0"
04
#85
1?"
b10 I"
1'
1,
1+
01
b10 <
b10 H"
b10 K"
b0 )
b0 2"
b0 7"
b10100 G
b10100 *"
b10100 M"
b100000000000011 ="
b0 =
b0 C"
b0 P"
b10000000000010000000000010000 ("
b10000000000010000000000010000 F
b10000000000010000000000010000 )"
b10000000000010000000000010000 R"
0x
1y
1}
1#"
1%"
0&"
b0 N"
b0 S"
b0 J"
b0 3"
b10100 O"
b0 P
b0 D"
b10000000000010000000000010000 T"
b100000000000000001001 ;
b100000000000000001001 I
b100000000000000001001 T
b0 5
b0 [
b0 o
1l
1E
0q
b111011 >
b111011 m
b111011 r
b0 ?
b0 G"
b11 >"
b11 A
b11 -"
b11 0"
b11 ;"
b10 D
b10 ."
b10 F"
b10100 C
b10100 ,"
b10100 L"
b0 6
b0 1"
b10000000000010000000000001100 3
b10000000000010000000000001100 8"
b10000000000010000000000001100 9"
b10000000000010000000000001100 A"
b10000000000010000000000010000 :
b10000000000010000000000010000 Q"
b10000000000010000000000010000 Y"
b100000000000000001001 U
b11101110100000100000000000000000 7
b11101110100000100000000000000000 X
b100000000000000001000 L
b100000000000000001001 0
b100000000000000001001 Q
b100000000000000001001 S
b100000000000000001001 /
b100000000000000001001 N
b100000000000000001001 O
b100000000000000001001 R
b100000000000000001000 W
b100000000000000001000 K
b10000000000000000100000 -
b10000000000000000100000 !
b11 ]"
b10000000000010000000000001100 @
b10000000000010000000000001100 +"
b10000000000010000000000001100 6"
b10000000000010000000000001100 V"
1"
14
#90
0"
04
#95
b0 S"
b0 =
b0 C"
b0 P"
b0 E"
b0 8
b0 <"
b0 B"
b100000000000000 ="
0,
b0 ("
b0 F
b0 )"
b0 R"
1*
b100 <
b100 H"
b100 K"
b100 G
b100 *"
b100 M"
1x
0y
1|
0}
0#"
0%"
b100 N"
b0 T"
1~
0b
1$"
1]
b100 I"
b0 O"
b10000000000010000000000000000 3
b10000000000010000000000000000 8"
b10000000000010000000000000000 9"
b10000000000010000000000000000 A"
b10000000000010000000000000100 :
b10000000000010000000000000100 Q"
b10000000000010000000000000100 Y"
b100000000000000001010 ;
b100000000000000001010 I
b100000000000000001010 T
0l
0E
1`
1_
b100011 >
b100011 m
b100011 r
b10000000000010000000000000000 >"
b10000000000010000000000000000 A
b10000000000010000000000000000 -"
b10000000000010000000000000000 0"
b10000000000010000000000000000 ;"
b100 D
b100 ."
b100 F"
b10101 C
b10101 ,"
b10101 L"
b100000000000000001010 U
b10001110101001000000000000000000 7
b10001110101001000000000000000000 X
b100000000000000001001 L
b100000000000000001010 0
b100000000000000001010 Q
b100000000000000001010 S
b100000000000000001010 /
b100000000000000001010 N
b100000000000000001010 O
b100000000000000001010 R
b100000000000000001001 W
b0 :"
b10000000000010000000000010000 o"
b10000000000010000000000000000 @
b10000000000010000000000000000 +"
b10000000000010000000000000000 6"
b10000000000010000000000000000 V"
b100000000000000001001 K
b10000000000000000100100 -
b10000000000000000100100 !
1"
14
#100
0"
04
