Lab11/pm.vcd
$date
	Sun Apr  9 11:11:03 2017
$end
$version
	Icarus Verilog
$end
$timescale
	1s
$end
$scope module test $end
$var wire 32 ! PC [31:0] $end
$var reg 1 " clk $end
$var reg 1 # done $end
$var integer 32 $ i [31:0] $end
$var reg 1 % reset $end
$scope module pm $end
$var wire 3 & ALUOp [2:0] $end
$var wire 1 ' ALUSrc $end
$var wire 1 ( BEQ $end
$var wire 32 ) B_data [31:0] $end
$var wire 1 * MemRead $end
$var wire 1 + MemRead_MW $end
$var wire 1 , MemToReg $end
$var wire 1 - MemToReg_MW $end
$var wire 1 . MemWrite $end
$var wire 1 / MemWrite_MW $end
$var wire 32 0 PC [31:0] $end
$var wire 1 1 PCSrc $end
$var wire 30 2 PC_plus4 [31:2] $end
$var wire 30 3 PC_target [31:2] $end
$var wire 30 4 PCplus4_DE [31:2] $end
$var wire 1 5 RegDst $end
$var wire 1 6 RegWrite $end
$var wire 1 7 RegWrite_MW $end
$var wire 32 8 alu_out_data [31:0] $end
$var wire 32 9 alu_out_data_MW [31:0] $end
$var wire 1 : clk $end
$var wire 1 ; flush $end
$var wire 1 < forwardA $end
$var wire 1 = forwardB $end
$var wire 6 > funct [5:0] $end
$var wire 6 ? funct_DE [5:0] $end
$var wire 32 @ imm [31:0] $end
$var wire 32 A imm_DE [31:0] $end
$var wire 32 B inst [31:0] $end
$var wire 32 C inst_DE [31:0] $end
$var wire 32 D load_data [31:0] $end
$var wire 30 E next_PC [31:2] $end
$var wire 6 F opcode [5:0] $end
$var wire 6 G opcode_DE [5:0] $end
$var wire 5 H rd [4:0] $end
$var wire 32 I rd1_data [31:0] $end
$var wire 32 J rd1_data_ [31:0] $end
$var wire 32 K rd2_data [31:0] $end
$var wire 32 L rd2_data_ [31:0] $end
$var wire 32 M rd2_data_MW [31:0] $end
$var wire 5 N rd_DE [4:0] $end
$var wire 1 O reset $end
$var wire 5 P rs [4:0] $end
$var wire 5 Q rs_DE [4:0] $end
$var wire 5 R rt [4:0] $end
$var wire 5 S rt_DE [4:0] $end
$var wire 1 T stall $end
$var wire 32 U wr_data [31:0] $end
$var wire 5 V wr_regnum [4:0] $end
$var wire 5 W wr_regnum_MW [4:0] $end
$var wire 1 X zero $end
$scope module PC_reg $end
$var wire 1 : clk $end
$var wire 30 Y d [29:0] $end
$var wire 1 Z enable $end
$var wire 1 O reset $end
$var reg 30 [ q [29:0] $end
$upscope $end
$scope module next_PC_adder $end
$var wire 30 \ in1 [29:0] $end
$var wire 30 ] in2 [29:0] $end
$var wire 30 ^ out [29:0] $end
$upscope $end
$scope module target_PC_adder $end
$var wire 30 _ in1 [29:0] $end
$var wire 30 ` in2 [29:0] $end
$var wire 30 a out [29:0] $end
$upscope $end
$scope module branch_mux $end
$var wire 30 b A [29:0] $end
$var wire 30 c B [29:0] $end
$var wire 30 d out [29:0] $end
$var wire 1 1 sel $end
$var wire 30 e temp1 [29:0] $end
$var wire 30 f temp2 [29:0] $end
$upscope $end
$scope module imem $end
$var wire 30 g addr [29:0] $end
$var wire 32 h data [31:0] $end
$var reg 32 i i [31:0] $end
$upscope $end
$scope module decode $end
$var wire 3 j ALUOp [2:0] $end
$var wire 1 ' ALUSrc $end
$var wire 1 ( BEQ $end
$var wire 1 * MemRead $end
$var wire 1 , MemToReg $end
$var wire 1 . MemWrite $end
$var wire 1 5 RegDst $end
$var wire 1 6 RegWrite $end
$var wire 6 k funct [5:0] $end
$var wire 1 l nop $end
$var wire 1 m op0 $end
$var wire 6 n opcode [5:0] $end
$upscope $end
$scope module rf $end
$var wire 1 : clock $end
$var wire 32 o internal_rdData [31:0] $end
$var wire 32 p rdData [31:0] $end
$var wire 5 q rdNum [4:0] $end
$var wire 1 7 rdWriteEnable $end
$var wire 1 O reset $end
$var wire 32 r rsData [31:0] $end
$var wire 5 s rsNum [4:0] $end
$var wire 32 t rtData [31:0] $end
$var wire 5 u rtNum [4:0] $end
$var integer 32 v i [31:0] $end
$upscope $end
$scope module imm_mux $end
$var wire 32 w A [31:0] $end
$var wire 32 x B [31:0] $end
$var wire 32 y out [31:0] $end
$var wire 1 ' sel $end
$var wire 32 z temp1 [31:0] $end
$var wire 32 { temp2 [31:0] $end
$upscope $end
$scope module alu $end
$var wire 3 | control [2:0] $end
$var wire 32 } inA [31:0] $end
$var wire 32 ~ inB [31:0] $end
$var wire 32 !" out [31:0] $end
$var wire 1 X zero $end
$upscope $end
$scope module aluR $end
$var wire 1 : clk $end
$var wire 32 "" d [31:0] $end
$var wire 1 #" enable $end
$var wire 1 O reset $end
$var reg 32 $" q [31:0] $end
$upscope $end
$scope module rd2R $end
$var wire 1 : clk $end
$var wire 32 %" d [31:0] $end
$var wire 1 &" enable $end
$var wire 1 O reset $end
$var reg 32 '" q [31:0] $end
$upscope $end
$scope module PCsrc $end
$var wire 1 : clk $end
$var wire 30 (" d [29:0] $end
$var wire 1 )" enable $end
$var wire 1 *" reset $end
$var reg 30 +" q [29:0] $end
$upscope $end
$scope module instr $end
$var wire 1 : clk $end
$var wire 32 ," d [31:0] $end
$var wire 1 -" enable $end
$var wire 1 ." reset $end
$var reg 32 /" q [31:0] $end
$upscope $end
$scope module mtr $end
$var wire 1 : clk $end
$var wire 1 , d $end
$var wire 1 0" enable $end
$var wire 1 1" reset $end
$var reg 1 2" q $end
$upscope $end
$scope module rwregister $end
$var wire 1 : clk $end
$var wire 1 6 d $end
$var wire 1 3" enable $end
$var wire 1 4" reset $end
$var reg 1 5" q $end
$upscope $end
$scope module wrregister $end
$var wire 1 : clk $end
$var wire 5 6" d [4:0] $end
$var wire 1 7" enable $end
$var wire 1 O reset $end
$var reg 5 8" q [4:0] $end
$upscope $end
$scope module MemReadregitser $end
$var wire 1 : clk $end
$var wire 1 * d $end
$var wire 1 9" enable $end
$var wire 1 :" reset $end
$var reg 1 ;" q $end
$upscope $end
$scope module MemwRegister $end
$var wire 1 : clk $end
$var wire 1 . d $end
$var wire 1 <" enable $end
$var wire 1 =" reset $end
$var reg 1 >" q $end
$upscope $end
$scope module forwardAmux $end
$var wire 32 ?" A [31:0] $end
$var wire 32 @" B [31:0] $end
$var wire 32 A" out [31:0] $end
$var wire 1 < sel $end
$var wire 32 B" temp1 [31:0] $end
$var wire 32 C" temp2 [31:0] $end
$upscope $end
$scope module forwardBmux $end
$var wire 32 D" A [31:0] $end
$var wire 32 E" B [31:0] $end
$var wire 32 F" out [31:0] $end
$var wire 1 = sel $end
$var wire 32 G" temp1 [31:0] $end
$var wire 32 H" temp2 [31:0] $end
$upscope $end
$scope module data_memory $end
$var wire 32 I" addr [31:0] $end
$var wire 1 : clk $end
$var wire 32 J" d_out [31:0] $end
$var wire 32 K" data_in [31:0] $end
$var wire 32 L" data_out [31:0] $end
$var wire 19 M" index [18:0] $end
$var wire 32 N" internal_data_in [31:0] $end
$var wire 1 + mem_read $end
$var wire 1 / mem_write $end
$var wire 1 O reset $end
$var wire 1 O" valid_address $end
$var integer 32 P" i [31:0] $end
$upscope $end
$scope module wb_mux $end
$var wire 32 Q" A [31:0] $end
$var wire 32 R" B [31:0] $end
$var wire 32 S" out [31:0] $end
$var wire 1 - sel $end
$var wire 32 T" temp1 [31:0] $end
$var wire 32 U" temp2 [31:0] $end
$upscope $end
$scope module rd_mux $end
$var wire 5 V" A [4:0] $end
$var wire 5 W" B [4:0] $end
$var wire 5 X" out [4:0] $end
$var wire 1 5 sel $end
$var wire 5 Y" temp1 [4:0] $end
$var wire 5 Z" temp2 [4:0] $end
$upscope $end
$upscope $end
$upscope $end
$scope module test $end
$scope module pm $end
$scope module rf $end
$var reg 32 [" \r[0] [31:0] $end
$upscope $end
$upscope $end
$upscope $end
$scope module test $end
$scope module pm $end
$scope module rf $end
$var reg 32 \" \r[1] [31:0] $end
$upscope $end
$upscope $end
$upscope $end
$scope module test $end
$scope module pm $end
$scope module rf $end
$var reg 32 ]" \r[2] [31:0] $end
$upscope $end
$upscope $end
$upscope $end
$scope module test $end
$scope module pm $end
$scope module rf $end
$var reg 32 ^" \r[3] [31:0] $end
$upscope $end
$upscope $end
$upscope $end
$scope module test $end
$scope module pm $end
$scope module rf $end
$var reg 32 _" \r[4] [31:0] $end
$upscope $end
$upscope $end
$upscope $end
$scope module test $end
$scope module pm $end
$scope module rf $end
$var reg 32 `" \r[5] [31:0] $end
$upscope $end
$upscope $end
$upscope $end
$scope module test $end
$scope module pm $end
$scope module rf $end
$var reg 32 a" \r[6] [31:0] $end
$upscope $end
$upscope $end
$upscope $end
$scope module test $end
$scope module pm $end
$scope module rf $end
$var reg 32 b" \r[7] [31:0] $end
$upscope $end
$upscope $end
$upscope $end
$scope module test $end
$scope module pm $end
$scope module rf $end
$var reg 32 c" \r[8] [31:0] $end
$upscope $end
$upscope $end
$upscope $end
$scope module test $end
$scope module pm $end
$scope module rf $end
$var reg 32 d" \r[9] [31:0] $end
$upscope $end
$upscope $end
$upscope $end
$scope module test $end
$scope module pm $end
$scope module rf $end
$var reg 32 e" \r[10] [31:0] $end
$upscope $end
$upscope $end
$upscope $end
$scope module test $end
$scope module pm $end
$scope module rf $end
$var reg 32 f" \r[11] [31:0] $end
$upscope $end
$upscope $end
$upscope $end
$scope module test $end
$scope module pm $end
$scope module rf $end
$var reg 32 g" \r[12] [31:0] $end
$upscope $end
$upscope $end
$upscope $end
$scope module test $end
$scope module pm $end
$scope module rf $end
$var reg 32 h" \r[13] [31:0] $end
$upscope $end
$upscope $end
$upscope $end
$scope module test $end
$scope module pm $end
$scope module rf $end
$var reg 32 i" \r[14] [31:0] $end
$upscope $end
$upscope $end
$upscope $end
$scope module test $end
$scope module pm $end
$scope module rf $end
$var reg 32 j" \r[15] [31:0] $end
$upscope $end
$upscope $end
$upscope $end
$scope module test $end
$scope module pm $end
$scope module rf $end
$var reg 32 k" \r[16] [31:0] $end
$upscope $end
$upscope $end
$upscope $end
$scope module test $end
$scope module pm $end
$scope module rf $end
$var reg 32 l" \r[17] [31:0] $end
$upscope $end
$upscope $end
$upscope $end
$scope module test $end
$scope module pm $end
$scope module rf $end
$var reg 32 m" \r[18] [31:0] $end
$upscope $end
$upscope $end
$upscope $end
$scope module test $end
$scope module pm $end
$scope module rf $end
$var reg 32 n" \r[19] [31:0] $end
$upscope $end
$upscope $end
$upscope $end
$scope module test $end
$scope module pm $end
$scope module rf $end
$var reg 32 o" \r[20] [31:0] $end
$upscope $end
$upscope $end
$upscope $end
$scope module test $end
$scope module pm $end
$scope module rf $end
$var reg 32 p" \r[21] [31:0] $end
$upscope $end
$upscope $end
$upscope $end
$scope module test $end
$scope module pm $end
$scope module rf $end
$var reg 32 q" \r[22] [31:0] $end
$upscope $end
$upscope $end
$upscope $end
$scope module test $end
$scope module pm $end
$scope module rf $end
$var reg 32 r" \r[23] [31:0] $end
$upscope $end
$upscope $end
$upscope $end
$scope module test $end
$scope module pm $end
$scope module rf $end
$var reg 32 s" \r[24] [31:0] $end
$upscope $end
$upscope $end
$upscope $end
$scope module test $end
$scope module pm $end
$scope module rf $end
$var reg 32 t" \r[25] [31:0] $end
$upscope $end
$upscope $end
$upscope $end
$scope module test $end
$scope module pm $end
$scope module rf $end
$var reg 32 u" \r[26] [31:0] $end
$upscope $end
$upscope $end
$upscope $end
$scope module test $end
$scope module pm $end
$scope module rf $end
$var reg 32 v" \r[27] [31:0] $end
$upscope $end
$upscope $end
$upscope $end
$scope module test $end
$scope module pm $end
$scope module rf $end
$var reg 32 w" \r[28] [31:0] $end
$upscope $end
$upscope $end
$upscope $end
$scope module test $end
$scope module pm $end
$scope module rf $end
$var reg 32 x" \r[29] [31:0] $end
$upscope $end
$upscope $end
$upscope $end
$scope module test $end
$scope module pm $end
$scope module rf $end
$var reg 32 y" \r[30] [31:0] $end
$upscope $end
$upscope $end
$upscope $end
$scope module test $end
$scope module pm $end
$scope module rf $end
$var reg 32 z" \r[31] [31:0] $end
$upscope $end
$upscope $end
$upscope $end
$enddefinitions $end
#0
$dumpvars
b10000000000010000000000000000 z"
b10000000000010000000000000000 y"
b10000000000010000000000000000 x"
b10000000000010000000000000000 w"
b10000000000010000000000000000 v"
b10000000000010000000000000000 u"
b10000000000010000000000000000 t"
b10000000000010000000000000000 s"
b10000000000010000000000000000 r"
b10000000000010000000000000000 q"
b10000000000010000000000000000 p"
b10000000000010000000000000000 o"
b10000000000010000000000000000 n"
b10000000000010000000000000000 m"
b10000000000010000000000000000 l"
b10000000000010000000000000000 k"
b10000000000010000000000000000 j"
b10000000000010000000000000000 i"
b10000000000010000000000000000 h"
b10000000000010000000000000000 g"
b10000000000010000000000000000 f"
b10000000000010000000000000000 e"
b10000000000010000000000000000 d"
b10000000000010000000000000000 c"
b10000000000010000000000000000 b"
b10000000000010000000000000000 a"
b10000000000010000000000000000 `"
b10000000000010000000000000000 _"
b10000000000010000000000000000 ^"
b10000000000010000000000000000 ]"
b10000000000010000000000000000 \"
b0 ["
bx Z"
bx Y"
bx X"
bx W"
bx V"
bx U"
bx T"
bx S"
bx R"
bx Q"
b1000000000000000000 P"
xO"
bx N"
bx M"
bx L"
bx K"
bx J"
bx I"
bx H"
bx G"
bx F"
bx E"
bx D"
bx C"
bx B"
bx A"
bx @"
bx ?"
x>"
1="
1<"
x;"
1:"
19"
bx 8"
17"
bx 6"
x5"
14"
13"
x2"
11"
10"
bx /"
1."
x-"
bx ,"
bx +"
1*"
x)"
bx ("
bx '"
1&"
bx %"
bx $"
1#"
bx ""
bx !"
bx ~
bx }
bx |
bx {
bx z
bx y
bx x
bx w
b100000 v
bx u
bx t
bx s
bx r
bx q
bx p
bx o
bx n
xm
xl
bx k
bx j
b100000000 i
bx h
bx g
bx f
bx e
bx d
bx c
bx b
bx a
bx `
bx _
bx ^
b1 ]
bx \
bx [
xZ
bx Y
xX
bx W
bx V
bx U
xT
bx S
bx R
bx Q
bx P
1O
bx N
bx M
bx L
bx K
bx J
bx I
bx H
bx G
bx F
bx E
bx D
bx C
bx B
bx A
bx @
bx ?
bx >
x=
x<
x;
0:
bx 9
bx 8
x7
x6
x5
bx 4
bx 3
bx 2
x1
bx00 0
x/
x.
x-
x,
x+
x*
bx )
x(
x'
bx &
1%
b100000 $
0#
0"
bx00 !
$end
#6
b0 V
b0 6"
b0 X"
b11011110101011011011111011101111 J"
b0 M"
b0 `
b0 {
b0 Z"
b0 Y"
b0 U
b0 p
b0 S"
1-"
1)"
1Z
b100000000000000000000 \
b100000000000000000000 g
b0 C"
b0 H"
0O"
b0 A
b0 x
b0 ?
b0 k
1m
b0 G
b0 n
b0 N
b0 W"
b0 S
b0 u
b0 V"
b0 Q
b0 s
b0 T"
b0 U"
0T
0=
0<
b100000000000000000000 [
b10000000000000000000000 0
b10000000000000000000000 !
b0 $"
b0 9
b0 @"
b0 E"
b0 I"
b0 Q"
b0 '"
b0 M
b0 K"
b100000000000000000000 +"
b100000000000000000000 4
b100000000000000000000 _
b0 /"
b0 C
02"
0-
05"
07
b0 8"
b0 W
b0 q
0;"
0+
0>"
0/
1"
1:
#7
b0 )
b0 y
b0 ~
b0 z
b0 L
b0 w
b0 %"
b0 F"
b0 J
b0 }
b0 A"
b0 G"
b0 B"
x*"
x."
01"
04"
0:"
0="
b0 o
b0 K
b0 t
b0 D"
b0 I
b0 r
b0 ?"
0%
0O
#8
06
b100000000000000000001 E
b100000000000000000001 Y
b100000000000000000001 d
0*"
0."
b0 f
b100000000000000000001 e
01
0;
15
0'
1X
b0 &
b0 j
b0 |
b100000000000000000000 3
b100000000000000000000 a
b100000000000000000000 c
1l
b100000000000000000001 2
b100000000000000000001 ^
b100000000000000000001 b
b100000000000000000001 ("
0(
0,
0*
0.
#9
b0 >
b100011 F
b0 H
b10 R
b10100 P
b0 @
b0 8
b0 !"
b0 ""
b10001110100000100000000000000000 B
b10001110100000100000000000000000 h
b10001110100000100000000000000000 ,"
b0 D
b0 L"
b0 R"
b0 N"
#12
0"
0:
#18
0m
b100011 G
b100011 n
b10 S
b10 u
b10 V"
b10100 Q
b10100 s
b100000000000000000001 \
b100000000000000000001 g
b10001110100000100000000000000000 /"
b10001110100000100000000000000000 C
b100000000000000000001 +"
b100000000000000000001 4
b100000000000000000001 _
b100000000000000000001 [
b10000000000000000000100 0
b10000000000000000000100 !
1"
1:
#19
b10000000000010000000000000000 )
b10000000000010000000000000000 y
b10000000000010000000000000000 ~
b10000000000010000000000000000 z
b10000000000010000000000000000 L
b10000000000010000000000000000 w
b10000000000010000000000000000 %"
b10000000000010000000000000000 F"
b10000000000010000000000000000 J
b10000000000010000000000000000 }
b10000000000010000000000000000 A"
b10000000000010000000000000000 G"
b10000000000010000000000000000 B"
b10000000000010000000000000000 K
b10000000000010000000000000000 t
b10000000000010000000000000000 D"
b10000000000010000000000000000 I
b10000000000010000000000000000 r
b10000000000010000000000000000 ?"
#20
b10 V
b10 6"
b10 X"
b0 )
b0 y
b0 ~
16
b10 Y"
b0 z
b100000000000000000010 E
b100000000000000000010 Y
b100000000000000000010 d
05
1'
b100000000000000000010 e
0l
1,
1*
b100000000000000000010 2
b100000000000000000010 ^
b100000000000000000010 b
b100000000000000000010 ("
b100000000000000000001 3
b100000000000000000001 a
b100000000000000000001 c
#21
b100 >
b11 R
b100 @
0X
b10001110100000110000000000000100 B
b10001110100000110000000000000100 h
b10001110100000110000000000000100 ,"
#22
b10000000000010000000000000000 8
b10000000000010000000000000000 !"
b10000000000010000000000000000 ""
#24
0"
0:
#30
0="
0:"
04"
01"
1-"
1)"
1Z
b100 )
b100 y
b100 ~
b11 V
b11 6"
b11 X"
0T
b1 J"
b100000000000000 M"
b100 `
b100 {
b11 Y"
b10000000000010000000000000000 G"
b100000000000000000010 \
b100000000000000000010 g
b0 H"
1O"
b100 A
b100 x
b100 ?
b100 k
b11 S
b11 u
b11 V"
0=
b100000000000000000010 [
b10000000000000000001000 0
b10000000000000000001000 !
b10000000000010000000000000000 $"
b10000000000010000000000000000 9
b10000000000010000000000000000 @"
b10000000000010000000000000000 E"
b10000000000010000000000000000 I"
b10000000000010000000000000000 Q"
b10000000000010000000000000000 '"
b10000000000010000000000000000 M
b10000000000010000000000000000 K"
b100000000000000000010 +"
b100000000000000000010 4
b100000000000000000010 _
b10001110100000110000000000000100 /"
b10001110100000110000000000000100 C
12"
1-
15"
17
b10 8"
b10 W
b10 q
1;"
1+
1"
1:
#32
b100000000000000000011 E
b100000000000000000011 Y
b100000000000000000011 d
b100000000000000000011 e
b10000000000010000000000000100 8
b10000000000010000000000000100 !"
b10000000000010000000000000100 ""
b100000000000000000011 2
b100000000000000000011 ^
b100000000000000000011 b
b100000000000000000011 ("
b100000000000000000110 3
b100000000000000000110 a
b100000000000000000110 c
#33
b1 U
b1 p
b1 S"
b1000 >
b100 R
b1000 @
b1 U"
b10001110100001000000000000001000 B
b10001110100001000000000000001000 h
b10001110100001000000000000001000 ,"
b1 D
b1 L"
b1 R"
b10000000000010000000000000000 N"
#34
b1 o
#36
0"
0:
#42
b1000 )
b1000 y
b1000 ~
b100 V
b100 6"
b100 X"
b1000 `
b1000 {
b100 Y"
b11111111 J"
b100000000000001 M"
b1000 A
b1000 x
b1000 ?
b1000 k
b100 S
b100 u
b100 V"
b100000000000000000011 \
b100000000000000000011 g
b11 8"
b11 W
b11 q
b10001110100001000000000000001000 /"
b10001110100001000000000000001000 C
b100000000000000000011 +"
b100000000000000000011 4
b100000000000000000011 _
b10000000000010000000000000100 $"
b10000000000010000000000000100 9
b10000000000010000000000000100 @"
b10000000000010000000000000100 E"
b10000000000010000000000000100 I"
b10000000000010000000000000100 Q"
b1 ]"
b100000000000000000011 [
b10000000000000000001100 0
b10000000000000000001100 !
1"
1:
#44
b100000000000000000100 E
b100000000000000000100 Y
b100000000000000000100 d
b100000000000000000100 e
b10000000000010000000000001000 8
b10000000000010000000000001000 !"
b10000000000010000000000001000 ""
b100000000000000000100 2
b100000000000000000100 ^
b100000000000000000100 b
b100000000000000000100 ("
b100000000000000001011 3
b100000000000000001011 a
b100000000000000001011 c
#45
b11111111 U
b11111111 p
b11111111 S"
b11111111 U"
b1100 >
b101 R
b1100 @
b11111111 D
b11111111 L"
b11111111 R"
b10001110100001010000000000001100 B
b10001110100001010000000000001100 h
b10001110100001010000000000001100 ,"
#46
b11111111 o
#48
0"
0:
#54
0="
0:"
04"
01"
1-"
1)"
1Z
b10000000000010000000000000000 L
b10000000000010000000000000000 w
b10000000000010000000000000000 %"
b10000000000010000000000000000 F"
b1100 )
b1100 y
b1100 ~
b101 V
b101 6"
b101 X"
0T
b10000000000010000000000000000 G"
b0 H"
b10000000000 J"
b100000000000010 M"
b1100 `
b1100 {
b101 Y"
0=
b100000000000000000100 \
b100000000000000000100 g
b1100 A
b1100 x
b1100 ?
b1100 k
b101 S
b101 u
b101 V"
b100000000000000000100 [
b10000000000000000010000 0
b10000000000000000010000 !
b11111111 ^"
b10000000000010000000000001000 $"
b10000000000010000000000001000 9
b10000000000010000000000001000 @"
b10000000000010000000000001000 E"
b10000000000010000000000001000 I"
b10000000000010000000000001000 Q"
b100000000000000000100 +"
b100000000000000000100 4
b100000000000000000100 _
b10001110100001010000000000001100 /"
b10001110100001010000000000001100 C
b100 8"
b100 W
b100 q
1"
1:
#56
b100000000000000000101 E
b100000000000000000101 Y
b100000000000000000101 d
b100000000000000000101 e
b10000000000010000000000001100 8
b10000000000010000000000001100 !"
b10000000000010000000000001100 ""
b100000000000000000101 2
b100000000000000000101 ^
b100000000000000000101 b
b100000000000000000101 ("
b100000000000000010000 3
b100000000000000010000 a
b100000000000000010000 c
#57
b10000000000 U
b10000000000 p
b10000000000 S"
b10000000000 U"
b10000 >
b110 R
b10000 @
b10000000000 D
b10000000000 L"
b10000000000 R"
b10001110100001100000000000010000 B
b10001110100001100000000000010000 h
b10001110100001100000000000010000 ,"
#58
b10000000000 o
#60
0"
0:
#66
b10000 )
b10000 y
b10000 ~
b110 V
b110 6"
b110 X"
b10000 `
b10000 {
b110 Y"
b1100100 J"
b100000000000011 M"
b10000 A
b10000 x
b10000 ?
b10000 k
b110 S
b110 u
b110 V"
b100000000000000000101 \
b100000000000000000101 g
b101 8"
b101 W
b101 q
b10001110100001100000000000010000 /"
b10001110100001100000000000010000 C
b100000000000000000101 +"
b100000000000000000101 4
b100000000000000000101 _
b10000000000010000000000001100 $"
b10000000000010000000000001100 9
b10000000000010000000000001100 @"
b10000000000010000000000001100 E"
b10000000000010000000000001100 I"
b10000000000010000000000001100 Q"
b10000000000 _"
b100000000000000000101 [
b10000000000000000010100 0
b10000000000000000010100 !
1"
1:
#68
b100000000000000000110 E
b100000000000000000110 Y
b100000000000000000110 d
b100000000000000000110 e
b10000000000010000000000010000 8
b10000000000010000000000010000 !"
b10000000000010000000000010000 ""
b100000000000000000110 2
b100000000000000000110 ^
b100000000000000000110 b
b100000000000000000110 ("
b100000000000000010101 3
b100000000000000010101 a
b100000000000000010101 c
#69
b1100100 U
b1100100 p
b1100100 S"
b1100100 U"
b100 >
b101011 F
b100 @
b1100100 D
b1100100 L"
b1100100 R"
b10101110100001100000000000000100 B
b10101110100001100000000000000100 h
b10101110100001100000000000000100 ,"
#70
b1100100 o
#72
0"
0:
#78
1="
1:"
14"
11"
0-"
0)"
0Z
b10000000000010000000000010000 L
b10000000000010000000000010000 w
b10000000000010000000000010000 %"
b10000000000010000000000010000 F"
b100 )
b100 y
b100 ~
1T
b0 G"
b10000000000010000000000010000 H"
b11001000 J"
b100000000000100 M"
b100 `
b100 {
1=
b100000000000000000110 \
b100000000000000000110 g
b100 A
b100 x
b100 ?
b100 k
b101011 G
b101011 n
b100000000000000000110 [
b10000000000000000011000 0
b10000000000000000011000 !
b1100100 `"
b10000000000010000000000010000 $"
b10000000000010000000000010000 9
b10000000000010000000000010000 @"
b10000000000010000000000010000 E"
b10000000000010000000000010000 I"
b10000000000010000000000010000 Q"
b100000000000000000110 +"
b100000000000000000110 4
b100000000000000000110 _
b10101110100001100000000000000100 /"
b10101110100001100000000000000100 C
b110 8"
b110 W
b110 q
1"
1:
#80
b0 V
b0 6"
b0 X"
06
b100000000000000000111 E
b100000000000000000111 Y
b100000000000000000111 d
b0 Y"
b100000000000000000111 e
15
b10000000000010000000000000100 8
b10000000000010000000000000100 !"
b10000000000010000000000000100 ""
b100000000000000000111 2
b100000000000000000111 ^
b100000000000000000111 b
b100000000000000000111 ("
0,
0*
1.
b100000000000000001010 3
b100000000000000001010 a
b100000000000000001010 c
#81
b11001000 U
b11001000 p
b11001000 S"
b11001000 U"
b100011 F
b111 R
b11001000 D
b11001000 L"
b11001000 R"
b10001110100001110000000000000100 B
b10001110100001110000000000000100 h
b10001110100001110000000000000100 ,"
#82
b11001000 o
#84
0"
0:
#90
0="
0:"
04"
01"
1-"
1)"
1Z
b10000000000010000000000000000 G"
b10000000000010000000000000000 L
b10000000000010000000000000000 w
b10000000000010000000000000000 %"
b10000000000010000000000000000 F"
b11111111 J"
b100000000000001 M"
b10000000000010000000000000100 U
b10000000000010000000000000100 p
b10000000000010000000000000100 S"
0T
0=
b0 U"
b0 H"
b10000000000010000000000000100 T"
0;"
0+
b0 8"
b0 W
b0 q
05"
07
02"
0-
b10000000000010000000000010000 '"
b10000000000010000000000010000 M
b10000000000010000000000010000 K"
b10000000000010000000000000100 $"
b10000000000010000000000000100 9
b10000000000010000000000000100 @"
b10000000000010000000000000100 E"
b10000000000010000000000000100 I"
b10000000000010000000000000100 Q"
b11001000 a"
1"
1:
#91
b11001000 L
b11001000 w
b11001000 %"
b11001000 F"
b11001000 G"
b10000000000010000000000000100 o
b11001000 K
b11001000 t
b11001000 D"
#93
b0 D
b0 L"
b0 R"
b10000000000010000000000010000 N"
#96
0"
0:
#102
b100000000000000000111 \
b100000000000000000111 g
b100011 G
b100011 n
b111 S
b111 u
b111 V"
b100000000000000000111 [
b10000000000000000011100 0
b10000000000000000011100 !
b11001000 '"
b11001000 M
b11001000 K"
b100000000000000000111 +"
b100000000000000000111 4
b100000000000000000111 _
b10001110100001110000000000000100 /"
b10001110100001110000000000000100 C
1>"
1/
1"
1:
#103
b10000000000010000000000000000 L
b10000000000010000000000000000 w
b10000000000010000000000000000 %"
b10000000000010000000000000000 F"
b10000000000010000000000000000 G"
b10000000000010000000000000000 K
b10000000000010000000000000000 t
b10000000000010000000000000000 D"
#104
b111 V
b111 6"
b111 X"
16
b100000000000000001000 E
b100000000000000001000 Y
b100000000000000001000 d
b111 Y"
b100000000000000001000 e
05
b100000000000000001000 2
b100000000000000001000 ^
b100000000000000001000 b
b100000000000000001000 ("
1,
1*
0.
b100000000000000001011 3
b100000000000000001011 a
b100000000000000001011 c
#105
b100000 >
b0 F
b1000 H
b101 R
b101 P
b100000000100000 @
b101001010100000000100000 B
b101001010100000000100000 h
b101001010100000000100000 ,"
b11001000 N"
#108
0"
0:
#114
b100000000100000 )
b100000000100000 y
b100000000100000 ~
b101 V
b101 6"
b101 X"
b0 U
b0 p
b0 S"
b100000000100000 `
b100000000100000 {
b101 Y"
b0 T"
b100000000100000 A
b100000000100000 x
b100000 ?
b100000 k
1m
b0 G
b0 n
b1000 N
b1000 W"
b101 S
b101 u
b101 V"
b101 Q
b101 s
b100000000000000001000 \
b100000000000000001000 g
b11001000 J"
0>"
0/
1;"
1+
b111 8"
b111 W
b111 q
15"
17
12"
1-
b101001010100000000100000 /"
b101001010100000000100000 C
b100000000000000001000 +"
b100000000000000001000 4
b100000000000000001000 _
b10000000000010000000000000000 '"
b10000000000010000000000000000 M
b10000000000010000000000000000 K"
b100000000000000001000 [
b10000000000000000100000 0
b10000000000000000100000 !
1"
1:
#115
b1100100 L
b1100100 w
b1100100 %"
b1100100 F"
b1100100 J
b1100100 }
b1100100 A"
b1100100 G"
b1100100 B"
b0 o
b1100100 K
b1100100 t
b1100100 D"
b1100100 I
b1100100 r
b1100100 ?"
#116
b1000 V
b1000 6"
b1000 X"
b1100100 )
b1100100 y
b1100100 ~
b0 Y"
b1000 Z"
b1100100 z
b0 {
b100000000000000001001 E
b100000000000000001001 Y
b100000000000000001001 d
15
0'
b100000000000000001001 e
0,
0*
b100000000000000001001 2
b100000000000000001001 ^
b100000000000000001001 b
b100000000000000001001 ("
b100000100000000101000 3
b100000100000000101000 a
b100000100000000101000 c
#117
b11001000 U
b11001000 p
b11001000 S"
b100010 >
b1001 H
b11 R
b100 P
b100100000100010 @
b11001000 U"
1X
b100000110100100000100010 B
b100000110100100000100010 h
b100000110100100000100010 ,"
b11001000 D
b11001000 L"
b11001000 R"
b10000000000010000000000000000 N"
#118
b11001000 o
b11001000 8
b11001000 !"
b11001000 ""
#120
0"
0:
#126
b1001 V
b1001 6"
b1001 X"
b11011110101011011011111011101111 J"
b110010 M"
b100100000100010 `
b1001 Z"
b100000000000000001001 \
b100000000000000001001 g
0O"
b100100000100010 A
b100100000100010 x
b100010 ?
b100010 k
b1001 N
b1001 W"
b11 S
b11 u
b11 V"
b100 Q
b100 s
b11001000 T"
b0 U"
b100000000000000001001 [
b10000000000000000100100 0
b10000000000000000100100 !
b11001000 b"
b11001000 $"
b11001000 9
b11001000 @"
b11001000 E"
b11001000 I"
b11001000 Q"
b1100100 '"
b1100100 M
b1100100 K"
b100000000000000001001 +"
b100000000000000001001 4
b100000000000000001001 _
b100000110100100000100010 /"
b100000110100100000100010 C
02"
0-
b1000 8"
b1000 W
b1000 q
0;"
0+
1"
1:
#127
b11111111 )
b11111111 y
b11111111 ~
b11111111 z
b11111111 L
b11111111 w
b11111111 %"
b11111111 F"
b10000000000 J
b10000000000 }
b10000000000 A"
b11111111 G"
b10000000000 B"
b11111111 K
b11111111 t
b11111111 D"
b10000000000 I
b10000000000 r
b10000000000 ?"
