Lab9/cp0.vcd
$date
	Sun Mar 26 17:25:06 2017
$end
$version
	Icarus Verilog
$end
$timescale
	1s
$end
$scope module cp0_test $end
$var wire 30 ! EPC [29:0] $end
$var wire 1 " TakenInterrupt $end
$var wire 32 # rd_data [31:0] $end
$var reg 1 $ ERET $end
$var reg 1 % MTC0 $end
$var reg 1 & TimerInterrupt $end
$var reg 1 ' clock $end
$var reg 30 ( next_pc [29:0] $end
$var reg 5 ) regnum [4:0] $end
$var reg 1 * reset $end
$var reg 32 + wr_data [31:0] $end
$scope module c0 $end
$var wire 30 , EPC [29:0] $end
$var wire 30 - EPCD [29:0] $end
$var wire 1 . EPCenable $end
$var wire 1 / ERET $end
$var wire 1 0 MTC0 $end
$var wire 1 " TakenInterrupt $end
$var wire 1 1 TimerInterrupt $end
$var wire 32 2 cause_register [31:0] $end
$var wire 1 3 clock $end
$var wire 1 4 exception_level $end
$var wire 1 5 exceptreset $end
$var wire 1 6 mtc012 $end
$var wire 1 7 mtc014 $end
$var wire 32 8 mtcout [31:0] $end
$var wire 30 9 next_pc [29:0] $end
$var wire 32 : q31 [31:0] $end
$var wire 32 ; rd_data [31:0] $end
$var wire 5 < regnum [4:0] $end
$var wire 1 = reset $end
$var wire 32 > status_register [31:0] $end
$var wire 32 ? user_status [31:0] $end
$var wire 32 @ wr_data [31:0] $end
$scope module UStatus $end
$var wire 1 3 clk $end
$var wire 32 A d [31:0] $end
$var wire 1 6 enable $end
$var wire 1 = reset $end
$var reg 32 B q [31:0] $end
$upscope $end
$scope module mtc0decoder $end
$var wire 1 0 enable $end
$var wire 5 C in [4:0] $end
$var wire 32 D out [31:0] $end
$upscope $end
$scope module mux1 $end
$var wire 30 E A [29:0] $end
$var wire 30 F B [29:0] $end
$var wire 30 G out [29:0] $end
$var wire 1 " sel $end
$var wire 30 H temp1 [29:0] $end
$var wire 30 I temp2 [29:0] $end
$upscope $end
$scope module dffe1 $end
$var wire 1 3 clk $end
$var wire 1 J d $end
$var wire 1 " enable $end
$var wire 1 5 reset $end
$var reg 1 K q $end
$upscope $end
$scope module EPCregister $end
$var wire 1 3 clk $end
$var wire 30 L d [29:0] $end
$var wire 1 . enable $end
$var wire 1 = reset $end
$var reg 30 M q [29:0] $end
$upscope $end
$scope module mux2 $end
$var wire 32 N A [31:0] $end
$var wire 32 O B [31:0] $end
$var wire 32 P C [31:0] $end
$var wire 32 Q D [31:0] $end
$var wire 32 R E [31:0] $end
$var wire 32 S F [31:0] $end
$var wire 32 T G [31:0] $end
$var wire 32 U H [31:0] $end
$var wire 32 V I [31:0] $end
$var wire 32 W J [31:0] $end
$var wire 32 X K [31:0] $end
$var wire 32 Y L [31:0] $end
$var wire 32 Z M [31:0] $end
$var wire 32 [ N [31:0] $end
$var wire 32 \ O [31:0] $end
$var wire 32 ] P [31:0] $end
$var wire 32 ^ a [31:0] $end
$var wire 32 _ b [31:0] $end
$var wire 32 ` c [31:0] $end
$var wire 32 a d [31:0] $end
$var wire 32 b e [31:0] $end
$var wire 32 c f [31:0] $end
$var wire 32 d g [31:0] $end
$var wire 32 e h [31:0] $end
$var wire 32 f i [31:0] $end
$var wire 32 g j [31:0] $end
$var wire 32 h k [31:0] $end
$var wire 32 i l [31:0] $end
$var wire 32 j m [31:0] $end
$var wire 32 k n [31:0] $end
$var wire 32 l o [31:0] $end
$var wire 32 m out [31:0] $end
$var wire 32 n p [31:0] $end
$var wire 5 o sel [4:0] $end
$var wire 32 p wUPPER [31:0] $end
$var wire 32 q wlower [31:0] $end
$scope module m0 $end
$var wire 32 r A [31:0] $end
$var wire 32 s B [31:0] $end
$var wire 32 t C [31:0] $end
$var wire 32 u D [31:0] $end
$var wire 32 v E [31:0] $end
$var wire 32 w F [31:0] $end
$var wire 32 x G [31:0] $end
$var wire 32 y H [31:0] $end
$var wire 32 z I [31:0] $end
$var wire 32 { J [31:0] $end
$var wire 32 | K [31:0] $end
$var wire 32 } L [31:0] $end
$var wire 32 ~ M [31:0] $end
$var wire 32 !" N [31:0] $end
$var wire 32 "" O [31:0] $end
$var wire 32 #" P [31:0] $end
$var wire 32 $" out [31:0] $end
$var wire 4 %" sel [3:0] $end
$var wire 32 &" wAB [31:0] $end
$var wire 32 '" wABCD [31:0] $end
$var wire 32 (" wABCDEFGH [31:0] $end
$var wire 32 )" wCD [31:0] $end
$var wire 32 *" wEF [31:0] $end
$var wire 32 +" wEFGH [31:0] $end
$var wire 32 ," wGH [31:0] $end
$var wire 32 -" wIJ [31:0] $end
$var wire 32 ." wIJKL [31:0] $end
$var wire 32 /" wIJKLMNOP [31:0] $end
$var wire 32 0" wKL [31:0] $end
$var wire 32 1" wMN [31:0] $end
$var wire 32 2" wMNOP [31:0] $end
$var wire 32 3" wOP [31:0] $end
$scope module mAB $end
$var wire 32 4" A [31:0] $end
$var wire 32 5" B [31:0] $end
$var wire 32 6" out [31:0] $end
$var wire 1 7" sel $end
$var wire 32 8" temp1 [31:0] $end
$var wire 32 9" temp2 [31:0] $end
$upscope $end
$scope module mCD $end
$var wire 32 :" A [31:0] $end
$var wire 32 ;" B [31:0] $end
$var wire 32 <" out [31:0] $end
$var wire 1 =" sel $end
$var wire 32 >" temp1 [31:0] $end
$var wire 32 ?" temp2 [31:0] $end
$upscope $end
$scope module mEF $end
$var wire 32 @" A [31:0] $end
$var wire 32 A" B [31:0] $end
$var wire 32 B" out [31:0] $end
$var wire 1 C" sel $end
$var wire 32 D" temp1 [31:0] $end
$var wire 32 E" temp2 [31:0] $end
$upscope $end
$scope module mGH $end
$var wire 32 F" A [31:0] $end
$var wire 32 G" B [31:0] $end
$var wire 32 H" out [31:0] $end
$var wire 1 I" sel $end
$var wire 32 J" temp1 [31:0] $end
$var wire 32 K" temp2 [31:0] $end
$upscope $end
$scope module mIJ $end
$var wire 32 L" A [31:0] $end
$var wire 32 M" B [31:0] $end
$var wire 32 N" out [31:0] $end
$var wire 1 O" sel $end
$var wire 32 P" temp1 [31:0] $end
$var wire 32 Q" temp2 [31:0] $end
$upscope $end
$scope module mKL $end
$var wire 32 R" A [31:0] $end
$var wire 32 S" B [31:0] $end
$var wire 32 T" out [31:0] $end
$var wire 1 U" sel $end
$var wire 32 V" temp1 [31:0] $end
$var wire 32 W" temp2 [31:0] $end
$upscope $end
$scope module mMN $end
$var wire 32 X" A [31:0] $end
$var wire 32 Y" B [31:0] $end
$var wire 32 Z" out [31:0] $end
$var wire 1 [" sel $end
$var wire 32 \" temp1 [31:0] $end
$var wire 32 ]" temp2 [31:0] $end
$upscope $end
$scope module mOP $end
$var wire 32 ^" A [31:0] $end
$var wire 32 _" B [31:0] $end
$var wire 32 `" out [31:0] $end
$var wire 1 a" sel $end
$var wire 32 b" temp1 [31:0] $end
$var wire 32 c" temp2 [31:0] $end
$upscope $end
$scope module mABCD $end
$var wire 32 d" A [31:0] $end
$var wire 32 e" B [31:0] $end
$var wire 32 f" out [31:0] $end
$var wire 1 g" sel $end
$var wire 32 h" temp1 [31:0] $end
$var wire 32 i" temp2 [31:0] $end
$upscope $end
$scope module mEFGH $end
$var wire 32 j" A [31:0] $end
$var wire 32 k" B [31:0] $end
$var wire 32 l" out [31:0] $end
$var wire 1 m" sel $end
$var wire 32 n" temp1 [31:0] $end
$var wire 32 o" temp2 [31:0] $end
$upscope $end
$scope module mIJKL $end
$var wire 32 p" A [31:0] $end
$var wire 32 q" B [31:0] $end
$var wire 32 r" out [31:0] $end
$var wire 1 s" sel $end
$var wire 32 t" temp1 [31:0] $end
$var wire 32 u" temp2 [31:0] $end
$upscope $end
$scope module mMNOP $end
$var wire 32 v" A [31:0] $end
$var wire 32 w" B [31:0] $end
$var wire 32 x" out [31:0] $end
$var wire 1 y" sel $end
$var wire 32 z" temp1 [31:0] $end
$var wire 32 {" temp2 [31:0] $end
$upscope $end
$scope module mABCDEFGH $end
$var wire 32 |" A [31:0] $end
$var wire 32 }" B [31:0] $end
$var wire 32 ~" out [31:0] $end
$var wire 1 !# sel $end
$var wire 32 "# temp1 [31:0] $end
$var wire 32 ## temp2 [31:0] $end
$upscope $end
$scope module mIJKLMNOP $end
$var wire 32 $# A [31:0] $end
$var wire 32 %# B [31:0] $end
$var wire 32 &# out [31:0] $end
$var wire 1 '# sel $end
$var wire 32 (# temp1 [31:0] $end
$var wire 32 )# temp2 [31:0] $end
$upscope $end
$scope module mfinal $end
$var wire 32 *# A [31:0] $end
$var wire 32 +# B [31:0] $end
$var wire 32 ,# out [31:0] $end
$var wire 1 -# sel $end
$var wire 32 .# temp1 [31:0] $end
$var wire 32 /# temp2 [31:0] $end
$upscope $end
$upscope $end
$scope module m1 $end
$var wire 32 0# A [31:0] $end
$var wire 32 1# B [31:0] $end
$var wire 32 2# C [31:0] $end
$var wire 32 3# D [31:0] $end
$var wire 32 4# E [31:0] $end
$var wire 32 5# F [31:0] $end
$var wire 32 6# G [31:0] $end
$var wire 32 7# H [31:0] $end
$var wire 32 8# I [31:0] $end
$var wire 32 9# J [31:0] $end
$var wire 32 :# K [31:0] $end
$var wire 32 ;# L [31:0] $end
$var wire 32 <# M [31:0] $end
$var wire 32 =# N [31:0] $end
$var wire 32 ># O [31:0] $end
$var wire 32 ?# P [31:0] $end
$var wire 32 @# out [31:0] $end
$var wire 4 A# sel [3:0] $end
$var wire 32 B# wAB [31:0] $end
$var wire 32 C# wABCD [31:0] $end
$var wire 32 D# wABCDEFGH [31:0] $end
$var wire 32 E# wCD [31:0] $end
$var wire 32 F# wEF [31:0] $end
$var wire 32 G# wEFGH [31:0] $end
$var wire 32 H# wGH [31:0] $end
$var wire 32 I# wIJ [31:0] $end
$var wire 32 J# wIJKL [31:0] $end
$var wire 32 K# wIJKLMNOP [31:0] $end
$var wire 32 L# wKL [31:0] $end
$var wire 32 M# wMN [31:0] $end
$var wire 32 N# wMNOP [31:0] $end
$var wire 32 O# wOP [31:0] $end
$scope module mAB $end
$var wire 32 P# A [31:0] $end
$var wire 32 Q# B [31:0] $end
$var wire 32 R# out [31:0] $end
$var wire 1 S# sel $end
$var wire 32 T# temp1 [31:0] $end
$var wire 32 U# temp2 [31:0] $end
$upscope $end
$scope module mCD $end
$var wire 32 V# A [31:0] $end
$var wire 32 W# B [31:0] $end
$var wire 32 X# out [31:0] $end
$var wire 1 Y# sel $end
$var wire 32 Z# temp1 [31:0] $end
$var wire 32 [# temp2 [31:0] $end
$upscope $end
$scope module mEF $end
$var wire 32 \# A [31:0] $end
$var wire 32 ]# B [31:0] $end
$var wire 32 ^# out [31:0] $end
$var wire 1 _# sel $end
$var wire 32 `# temp1 [31:0] $end
$var wire 32 a# temp2 [31:0] $end
$upscope $end
$scope module mGH $end
$var wire 32 b# A [31:0] $end
$var wire 32 c# B [31:0] $end
$var wire 32 d# out [31:0] $end
$var wire 1 e# sel $end
$var wire 32 f# temp1 [31:0] $end
$var wire 32 g# temp2 [31:0] $end
$upscope $end
$scope module mIJ $end
$var wire 32 h# A [31:0] $end
$var wire 32 i# B [31:0] $end
$var wire 32 j# out [31:0] $end
$var wire 1 k# sel $end
$var wire 32 l# temp1 [31:0] $end
$var wire 32 m# temp2 [31:0] $end
$upscope $end
$scope module mKL $end
$var wire 32 n# A [31:0] $end
$var wire 32 o# B [31:0] $end
$var wire 32 p# out [31:0] $end
$var wire 1 q# sel $end
$var wire 32 r# temp1 [31:0] $end
$var wire 32 s# temp2 [31:0] $end
$upscope $end
$scope module mMN $end
$var wire 32 t# A [31:0] $end
$var wire 32 u# B [31:0] $end
$var wire 32 v# out [31:0] $end
$var wire 1 w# sel $end
$var wire 32 x# temp1 [31:0] $end
$var wire 32 y# temp2 [31:0] $end
$upscope $end
$scope module mOP $end
$var wire 32 z# A [31:0] $end
$var wire 32 {# B [31:0] $end
$var wire 32 |# out [31:0] $end
$var wire 1 }# sel $end
$var wire 32 ~# temp1 [31:0] $end
$var wire 32 !$ temp2 [31:0] $end
$upscope $end
$scope module mABCD $end
$var wire 32 "$ A [31:0] $end
$var wire 32 #$ B [31:0] $end
$var wire 32 $$ out [31:0] $end
$var wire 1 %$ sel $end
$var wire 32 &$ temp1 [31:0] $end
$var wire 32 '$ temp2 [31:0] $end
$upscope $end
$scope module mEFGH $end
$var wire 32 ($ A [31:0] $end
$var wire 32 )$ B [31:0] $end
$var wire 32 *$ out [31:0] $end
$var wire 1 +$ sel $end
$var wire 32 ,$ temp1 [31:0] $end
$var wire 32 -$ temp2 [31:0] $end
$upscope $end
$scope module mIJKL $end
$var wire 32 .$ A [31:0] $end
$var wire 32 /$ B [31:0] $end
$var wire 32 0$ out [31:0] $end
$var wire 1 1$ sel $end
$var wire 32 2$ temp1 [31:0] $end
$var wire 32 3$ temp2 [31:0] $end
$upscope $end
$scope module mMNOP $end
$var wire 32 4$ A [31:0] $end
$var wire 32 5$ B [31:0] $end
$var wire 32 6$ out [31:0] $end
$var wire 1 7$ sel $end
$var wire 32 8$ temp1 [31:0] $end
$var wire 32 9$ temp2 [31:0] $end
$upscope $end
$scope module mABCDEFGH $end
$var wire 32 :$ A [31:0] $end
$var wire 32 ;$ B [31:0] $end
$var wire 32 <$ out [31:0] $end
$var wire 1 =$ sel $end
$var wire 32 >$ temp1 [31:0] $end
$var wire 32 ?$ temp2 [31:0] $end
$upscope $end
$scope module mIJKLMNOP $end
$var wire 32 @$ A [31:0] $end
$var wire 32 A$ B [31:0] $end
$var wire 32 B$ out [31:0] $end
$var wire 1 C$ sel $end
$var wire 32 D$ temp1 [31:0] $end
$var wire 32 E$ temp2 [31:0] $end
$upscope $end
$scope module mfinal $end
$var wire 32 F$ A [31:0] $end
$var wire 32 G$ B [31:0] $end
$var wire 32 H$ out [31:0] $end
$var wire 1 I$ sel $end
$var wire 32 J$ temp1 [31:0] $end
$var wire 32 K$ temp2 [31:0] $end
$upscope $end
$upscope $end
$scope module mfinal $end
$var wire 32 L$ A [31:0] $end
$var wire 32 M$ B [31:0] $end
$var wire 32 N$ out [31:0] $end
$var wire 1 O$ sel $end
$var wire 32 P$ temp1 [31:0] $end
$var wire 32 Q$ temp2 [31:0] $end
$upscope $end
$upscope $end
$upscope $end
$upscope $end
$enddefinitions $end
#0
$dumpvars
b0 Q$
b0 P$
0O$
b0 N$
b0 M$
b0 L$
b0 K$
b0 J$
0I$
b0 H$
b0 G$
b0 F$
b0 E$
b0 D$
0C$
b0 B$
b0 A$
b0 @$
b0 ?$
b0 >$
0=$
b0 <$
b0 ;$
b0 :$
b0 9$
b0 8$
07$
b0 6$
b0 5$
b0 4$
b0 3$
b0 2$
01$
b0 0$
b0 /$
b0 .$
b0 -$
b0 ,$
0+$
b0 *$
b0 )$
b0 ($
b0 '$
b0 &$
0%$
b0 $$
b0 #$
b0 "$
b0 !$
b0 ~#
0}#
b0 |#
b0 {#
b0 z#
b0 y#
b0 x#
0w#
b0 v#
b0 u#
b0 t#
b0 s#
b0 r#
0q#
b0 p#
b0 o#
b0 n#
b0 m#
b0 l#
0k#
b0 j#
b0 i#
b0 h#
b0 g#
b0 f#
0e#
b0 d#
b0 c#
b0 b#
b0 a#
b0 `#
0_#
b0 ^#
b0 ]#
b0 \#
b0 [#
b0 Z#
0Y#
b0 X#
b0 W#
b0 V#
b0 U#
b0 T#
0S#
b0 R#
b0 Q#
b0 P#
b0 O#
b0 N#
b0 M#
b0 L#
b0 K#
b0 J#
b0 I#
b0 H#
b0 G#
b0 F#
b0 E#
b0 D#
b0 C#
b0 B#
b0 A#
b0 @#
b0 ?#
b0 >#
b0 =#
b0 <#
b0 ;#
b0 :#
b0 9#
b0 8#
b0 7#
b0 6#
b0 5#
b0 4#
b0 3#
b0 2#
b0 1#
b0 0#
b0 /#
b0 .#
0-#
b0 ,#
b0 +#
b0 *#
b0 )#
b0 (#
0'#
b0 &#
b0xxxxxxxx000000xx %#
b0 $#
b0 ##
b0 "#
0!#
b0 ~"
b0 }"
b0 |"
b0 {"
b0xxxxxxxx000000xx z"
0y"
b0xxxxxxxx000000xx x"
bx00 w"
b0xxxxxxxx000000xx v"
b0 u"
b0 t"
0s"
b0 r"
b0 q"
b0 p"
b0 o"
b0 n"
0m"
b0 l"
b0 k"
b0 j"
b0 i"
b0 h"
0g"
b0 f"
b0 e"
b0 d"
b0 c"
bx00 b"
0a"
bx00 `"
b0 _"
bx00 ^"
b0 ]"
b0xxxxxxxx000000xx \"
0["
b0xxxxxxxx000000xx Z"
b0 Y"
b0xxxxxxxx000000xx X"
b0 W"
b0 V"
0U"
b0 T"
b0 S"
b0 R"
b0 Q"
b0 P"
0O"
b0 N"
b0 M"
b0 L"
b0 K"
b0 J"
0I"
b0 H"
b0 G"
b0 F"
b0 E"
b0 D"
0C"
b0 B"
b0 A"
b0 @"
b0 ?"
b0 >"
0="
b0 <"
b0 ;"
b0 :"
b0 9"
b0 8"
07"
b0 6"
b0 5"
b0 4"
bx00 3"
b0xxxxxxxx000000xx 2"
b0xxxxxxxx000000xx 1"
b0 0"
b0 /"
b0 ."
b0 -"
b0 ,"
b0 +"
b0 *"
b0 )"
b0 ("
b0 '"
b0 &"
b0 %"
b0 $"
b0 #"
bx00 ""
b0 !"
b0xxxxxxxx000000xx ~
b0 }
b0 |
b0 {
b0 z
b0 y
b0 x
b0 w
b0 v
b0 u
b0 t
b0 s
b0 r
b0 q
b0 p
b0 o
b0 n
b0 m
bx00 l
b0 k
b0xxxxxxxx000000xx j
b0 i
b0 h
b0 g
b0 f
b0 e
b0 d
b0 c
b0 b
b0 a
b0 `
b0 _
b0 ^
b0 ]
b0 \
b0 [
b0 Z
b0 Y
b0 X
b0 W
b0 V
b0 U
b0 T
b0 S
b0 R
b0 Q
b0 P
b0 O
b0 N
bx M
b0 L
xK
1J
b0 I
b0 H
b0 G
b0 F
b0 E
b0 D
b0 C
bx B
b0 A
b0 @
bx ?
b0xxxxxxxx000000xx >
1=
b0 <
b0 ;
bx00 :
b0 9
b0 8
07
06
15
x4
03
b0 2
01
00
0/
0.
b0 -
bx ,
b0 +
1*
b0 )
b0 (
0'
0&
0%
0$
b0 #
0"
bx !
$end
#5
b0 2"
b0 x"
b0 %#
b0 z"
b0 1"
b0 Z"
b0 v"
b0 3"
b0 `"
b0 w"
b0 \"
b0 b"
b0 B
b0 ?
0K
04
b0 >
b0 j
b0 ~
b0 X"
b0 M
b0 :
b0 l
b0 ""
b0 ^"
b0 !
b0 ,
1'
13
#10
b111111111111111111111111111111 -
b111111111111111111111111111111 G
b111111111111111111111111111111 L
b111111111111111111111111111111 H
1!#
1'#
1-#
1=$
1C$
1I$
16
b111111111111111111111111111111 E
b1100 %"
b1100 A#
b1000000000000 8
b1000000000000 D
05
0'
03
b11111111111111111111111111111111 +
b11111111111111111111111111111111 @
b11111111111111111111111111111111 A
b1100 )
b1100 <
b1100 C
b1100 o
1%
10
0*
0=
#15
b1111111100000001 #
b1111111100000001 ;
b1111111100000001 m
b1111111100000001 N$
b1111111100000001 P$
b1111111100000001 q
b1111111100000001 $"
b1111111100000001 ,#
b1111111100000001 L$
b1111111100000001 /#
b1111111100000001 /"
b1111111100000001 &#
b1111111100000001 +#
b1111111100000001 )#
b1111111100000001 2"
b1111111100000001 x"
b1111111100000001 %#
b1111111100000001 z"
b1111111100000001 1"
b1111111100000001 Z"
b1111111100000001 v"
b1111111100000001 \"
b1111111100000001 >
b1111111100000001 j
b1111111100000001 ~
b1111111100000001 X"
b11111111111111111111111111111111 B
b11111111111111111111111111111111 ?
1'
13
#20
06
b0 8
b0 D
0'
03
0%
00
#25
1'
13
#30
b100000000000000000100 -
b100000000000000000100 G
b100000000000000000100 L
b0 H
b100000000000000000100 I
1.
1"
0'
03
b100000000000000000100 (
b100000000000000000100 9
b100000000000000000100 F
1&
b1000000000000000 2
b1000000000000000 k
b1000000000000000 !"
b1000000000000000 Y"
11
#35
b1111111100000011 #
b1111111100000011 ;
b1111111100000011 m
b1111111100000011 N$
b1111111100000011 P$
b1111111100000011 q
b1111111100000011 $"
b1111111100000011 ,#
b1111111100000011 L$
b1111111100000011 /#
b111111111111111111111111111111 -
b111111111111111111111111111111 G
b111111111111111111111111111111 L
b1111111100000011 /"
b1111111100000011 &#
b1111111100000011 +#
b111111111111111111111111111111 H
b0 I
0.
b1111111100000011 )#
0"
b1111111100000011 2"
b1111111100000011 x"
b1111111100000011 %#
b1111111100000011 z"
b10000000000000000010000 3"
b10000000000000000010000 `"
b10000000000000000010000 w"
b1111111100000011 1"
b1111111100000011 Z"
b1111111100000011 v"
b10000000000000000010000 b"
b1111111100000011 \"
b100000000000000000100 M
b10000000000000000010000 :
b10000000000000000010000 l
b10000000000000000010000 ""
b10000000000000000010000 ^"
b100000000000000000100 !
b100000000000000000100 ,
1K
14
b1111111100000011 >
b1111111100000011 j
b1111111100000011 ~
b1111111100000011 X"
1'
13
#40
0'
03
b100000000000000001000 (
b100000000000000001000 9
b100000000000000001000 F
#45
1'
13
#50
b10000000000000000010000 #
b10000000000000000010000 ;
b10000000000000000010000 m
b10000000000000000010000 N$
b10000000000000000010000 P$
b10000000000000000010000 q
b10000000000000000010000 $"
b10000000000000000010000 ,#
b10000000000000000010000 L$
b10000000000000000010000 /#
b10000000000000000010000 /"
b10000000000000000010000 &#
b10000000000000000010000 +#
b10000000000000000010000 )#
b10000000000000000010000 2"
b10000000000000000010000 x"
b10000000000000000010000 %#
b0 z"
b10000000000000000010000 {"
1g"
1m"
1s"
1y"
1%$
1+$
11$
17$
b1110 %"
b1110 A#
0'
03
b1110 )
b1110 <
b1110 C
b1110 o
#55
1'
13
#60
b1000000000000000 #
b1000000000000000 ;
b1000000000000000 m
b1000000000000000 N$
b1000000000000000 P$
b1000000000000000 q
b1000000000000000 $"
b1000000000000000 ,#
b1000000000000000 L$
b1000000000000000 /#
b1000000000000000 /"
b1000000000000000 &#
b1000000000000000 +#
b1000000000000000 )#
b1000000000000000 1"
b1000000000000000 Z"
b1000000000000000 v"
b0 3"
b0 `"
b0 w"
b1000000000000000 2"
b1000000000000000 x"
b1000000000000000 %#
b0 \"
b1000000000000000 ]"
b0 b"
b1000000000000000 z"
b0 {"
17"
1="
1C"
1I"
1O"
1U"
1["
1a"
0g"
0m"
0s"
0y"
1S#
1Y#
1_#
1e#
1k#
1q#
1w#
1}#
0%$
0+$
01$
07$
b1101 %"
b1101 A#
0'
03
b1101 )
b1101 <
b1101 C
b1101 o
#65
1'
13
#70
b0 #
b0 ;
b0 m
b0 N$
b0 P$
b0 q
b0 $"
b0 ,#
b0 L$
b0 /#
b0 /"
b0 &#
b0 +#
b0 )#
b0 2"
b0 x"
b0 %#
b0 z"
b0 1"
b0 Z"
b0 v"
15
b0 ]"
0'
03
1$
1/
0&
b0 2
b0 k
b0 !"
b0 Y"
01
#75
0K
04
b1111111100000001 >
b1111111100000001 j
b1111111100000001 ~
b1111111100000001 X"
1'
13
#80
b1111111100000001 #
b1111111100000001 ;
b1111111100000001 m
b1111111100000001 N$
b1111111100000001 P$
b1111111100000001 q
b1111111100000001 $"
b1111111100000001 ,#
b1111111100000001 L$
b1111111100000001 /#
b1111111100000001 /"
b1111111100000001 &#
b1111111100000001 +#
b1111111100000001 )#
b1111111100000001 2"
b1111111100000001 x"
b1111111100000001 %#
b1111111100000001 z"
b1111111100000001 1"
b1111111100000001 Z"
b1111111100000001 v"
b10000000000000000010000 3"
b10000000000000000010000 `"
b10000000000000000010000 w"
b1111111100000001 \"
b10000000000000000010000 b"
07"
0="
0C"
0I"
0O"
0U"
0["
0a"
0S#
0Y#
0_#
0e#
0k#
0q#
0w#
0}#
b1100 %"
b1100 A#
0'
03
b1100 )
b1100 <
b1100 C
b1100 o
#85
1'
13
#90
b0 #
b0 ;
b0 m
b0 N$
b0 P$
b0 q
b0 $"
b0 ,#
b0 L$
b0 /#
b0 /"
b0 &#
b0 +#
b0 )#
b0 2"
b0 x"
b0 %#
b0 z"
b0 1"
b0 Z"
b0 v"
b0 3"
b0 `"
b0 w"
b0 \"
b0 b"
17"
1="
1C"
1I"
1O"
1U"
1["
1a"
1S#
1Y#
1_#
1e#
1k#
1q#
1w#
1}#
b1101 %"
b1101 A#
0'
03
b1101 )
b1101 <
b1101 C
b1101 o
